  [1m[35m (17.7ms)[0m  [1m[34mSELECT sqlite_version(*)[0m
  [1m[35m (0.1ms)[0m  [1m[34mSELECT sqlite_version(*)[0m
  [1m[35m (0.6ms)[0m  [1m[34mSELECT sqlite_version(*)[0m
  [1m[35m (0.1ms)[0m  [1m[34mSELECT sqlite_version(*)[0m
  [1m[35m (0.1ms)[0m  [1m[34mSELECT sqlite_version(*)[0m
  [1m[36mTRANSACTION (0.0ms)[0m  [1m[36mbegin transaction[0m
--------------------------------------------------
StaticPagesControllerTest: test_should_get_contact
--------------------------------------------------
  [1m[35m (0.1ms)[0m  [1m[34mSELECT sqlite_version(*)[0m
  [1m[36mTRANSACTION (0.1ms)[0m  [1m[36mbegin transaction[0m
-----------------------------------------------
StaticPagesControllerTest: test_should_get_help
-----------------------------------------------
  [1m[35m (0.1ms)[0m  [1m[34mSELECT sqlite_version(*)[0m
  [1m[36mTRANSACTION (0.1ms)[0m  [1m[36mbegin transaction[0m
------------------------------------------------
StaticPagesControllerTest: test_should_get_about
------------------------------------------------
  [1m[35m (0.1ms)[0m  [1m[34mSELECT sqlite_version(*)[0m
  [1m[36mTRANSACTION (0.0ms)[0m  [1m[36mbegin transaction[0m
-----------------------------------------------
StaticPagesControllerTest: test_should_get_home
-----------------------------------------------
  [1m[36mTRANSACTION (0.1ms)[0m  [1m[31mrollback transaction[0m
Started GET "/static_pages/contact" for 127.0.0.1 at 2021-10-15 19:03:28 +0300
Started GET "/static_pages/help" for 127.0.0.1 at 2021-10-15 19:03:28 +0300
Started GET "/static_pages/about" for 127.0.0.1 at 2021-10-15 19:03:28 +0300
Processing by StaticPagesController#about as HTML
Processing by StaticPagesController#contact as HTML
Processing by StaticPagesController#help as HTML
  Rendering layout layouts/application.html.erb
  Rendering static_pages/about.html.erb within layouts/application
  Rendering layout layouts/application.html.erb
  Rendering static_pages/contact.html.erb within layouts/application
  Rendering layout layouts/application.html.erb
  Rendering static_pages/help.html.erb within layouts/application
  Rendered static_pages/about.html.erb within layouts/application (Duration: 17.6ms | Allocations: 416)
  Rendered static_pages/contact.html.erb within layouts/application (Duration: 10.4ms | Allocations: 329)
  Rendered static_pages/help.html.erb within layouts/application (Duration: 15.0ms | Allocations: 2003)
  Rendered layout layouts/application.html.erb (Duration: 821.2ms | Allocations: 34824)
Completed 500 Internal Server Error in 971ms (ActiveRecord: 0.0ms | Allocations: 39075)
  [1m[36mTRANSACTION (0.1ms)[0m  [1m[31mrollback transaction[0m
  Rendered layout layouts/application.html.erb (Duration: 821.2ms | Allocations: 34966)
Completed 500 Internal Server Error in 972ms (ActiveRecord: 0.0ms | Allocations: 39308)
  [1m[36mTRANSACTION (0.1ms)[0m  [1m[31mrollback transaction[0m
[Webpacker] Compiling...
[Webpacker] Compiled all packs in C:/Users/timav/Documents/www/sample_up_working/public/packs-test
[Webpacker] Hash: 31b351f6be346d3a55f8
Version: webpack 4.46.0
Time: 3943ms
Built at: 15.10.2021 19:03:38
                                     Asset       Size       Chunks                         Chunk Names
    js/application-dd998cb6b794ecb7e8af.js    125 KiB  application  [emitted] [immutable]  application
js/application-dd998cb6b794ecb7e8af.js.map    139 KiB  application  [emitted] [dev]        application
                             manifest.json  384 bytes               [emitted]              
Entrypoint application = js/application-dd998cb6b794ecb7e8af.js js/application-dd998cb6b794ecb7e8af.js.map
[./app/javascript/channels sync recursive _channel\.js$] ./app/javascript/channels sync _channel\.js$ 160 bytes {application} [built]
[./app/javascript/channels/index.js] 211 bytes {application} [built]
[./app/javascript/packs/application.js] 492 bytes {application} [built]
[./node_modules/webpack/buildin/module.js] (webpack)/buildin/module.js 552 bytes {application} [built]
    + 3 hidden modules

  Rendered layouts/_shim.html.erb (Duration: 0.8ms | Allocations: 108)
  Rendered layouts/_header.html.erb (Duration: 0.6ms | Allocations: 222)
  Rendered layouts/_footer.html.erb (Duration: 0.5ms | Allocations: 141)
  Rendered layouts/_header.html.erb (Duration: 0.1ms | Allocations: 47)
  Rendered layout layouts/application.html.erb (Duration: 9991.4ms | Allocations: 95719)
Completed 200 OK in 10218ms (Views: 10068.1ms | ActiveRecord: 0.0ms | Allocations: 100674)
  [1m[36mTRANSACTION (0.1ms)[0m  [1m[31mrollback transaction[0m
  [1m[35m (1.8ms)[0m  [1m[34mSELECT sqlite_version(*)[0m
  [1m[35m (0.1ms)[0m  [1m[34mSELECT sqlite_version(*)[0m
  [1m[35m (0.1ms)[0m  [1m[34mSELECT sqlite_version(*)[0m
  [1m[36mTRANSACTION (0.1ms)[0m  [1m[36mbegin transaction[0m
--------------------------------------------------
StaticPagesControllerTest: test_should_get_contact
--------------------------------------------------
  [1m[35m (0.1ms)[0m  [1m[34mSELECT sqlite_version(*)[0m
  [1m[36mTRANSACTION (0.2ms)[0m  [1m[36mbegin transaction[0m
-----------------------------------------------
StaticPagesControllerTest: test_should_get_home
-----------------------------------------------
  [1m[35m (0.1ms)[0m  [1m[34mSELECT sqlite_version(*)[0m
  [1m[36mTRANSACTION (0.1ms)[0m  [1m[36mbegin transaction[0m
-----------------------------------------------
StaticPagesControllerTest: test_should_get_help
-----------------------------------------------
  [1m[35m (0.1ms)[0m  [1m[34mSELECT sqlite_version(*)[0m
  [1m[36mTRANSACTION (0.1ms)[0m  [1m[36mbegin transaction[0m
------------------------------------------------
StaticPagesControllerTest: test_should_get_about
------------------------------------------------
  [1m[36mTRANSACTION (0.1ms)[0m  [1m[31mrollback transaction[0m
Started GET "/static_pages/contact" for 127.0.0.1 at 2021-10-15 21:11:49 +0300
Started GET "/static_pages/help" for 127.0.0.1 at 2021-10-15 21:11:49 +0300
Processing by StaticPagesController#contact as HTML
Started GET "/static_pages/about" for 127.0.0.1 at 2021-10-15 21:11:49 +0300
Processing by StaticPagesController#about as HTML
Processing by StaticPagesController#help as HTML
  Rendering layout layouts/application.html.erb
  Rendering static_pages/help.html.erb within layouts/application
  Rendering layout layouts/application.html.erb
  Rendering static_pages/about.html.erb within layouts/application
  Rendered static_pages/help.html.erb within layouts/application (Duration: 3.1ms | Allocations: 350)
  Rendered static_pages/about.html.erb within layouts/application (Duration: 1.8ms | Allocations: 287)
  Rendering layout layouts/application.html.erb
  Rendering static_pages/contact.html.erb within layouts/application
  Rendered static_pages/contact.html.erb within layouts/application (Duration: 4.0ms | Allocations: 819)
  Rendered layout layouts/application.html.erb (Duration: 797.4ms | Allocations: 47584)
Completed 500 Internal Server Error in 858ms (ActiveRecord: 0.0ms | Allocations: 53850)
  [1m[36mTRANSACTION (0.1ms)[0m  [1m[31mrollback transaction[0m
  Rendered layout layouts/application.html.erb (Duration: 800.8ms | Allocations: 48111)
Completed 500 Internal Server Error in 843ms (ActiveRecord: 0.0ms | Allocations: 52671)
  [1m[36mTRANSACTION (0.2ms)[0m  [1m[31mrollback transaction[0m
[Webpacker] Everything's up-to-date. Nothing to do
  Rendered layouts/_shim.html.erb (Duration: 1.3ms | Allocations: 103)
  Rendered layouts/_header.html.erb (Duration: 2.7ms | Allocations: 222)
  Rendered layouts/_footer.html.erb (Duration: 1.6ms | Allocations: 141)
  Rendered layouts/_header.html.erb (Duration: 0.2ms | Allocations: 47)
  Rendered layout layouts/application.html.erb (Duration: 1109.5ms | Allocations: 69542)
Completed 200 OK in 1143ms (Views: 1117.2ms | ActiveRecord: 0.0ms | Allocations: 72635)
  [1m[36mTRANSACTION (0.1ms)[0m  [1m[31mrollback transaction[0m
  [1m[35m (2.0ms)[0m  [1m[34mSELECT sqlite_version(*)[0m
  [1m[35m (0.1ms)[0m  [1m[34mSELECT sqlite_version(*)[0m
  [1m[35m (0.1ms)[0m  [1m[34mSELECT sqlite_version(*)[0m
  [1m[36mTRANSACTION (0.0ms)[0m  [1m[36mbegin transaction[0m
--------------------------------------------------
StaticPagesControllerTest: test_should_get_contact
--------------------------------------------------
  [1m[35m (0.1ms)[0m  [1m[34mSELECT sqlite_version(*)[0m
  [1m[36mTRANSACTION (0.1ms)[0m  [1m[36mbegin transaction[0m
-----------------------------------------------
StaticPagesControllerTest: test_should_get_home
-----------------------------------------------
  [1m[35m (0.1ms)[0m  [1m[34mSELECT sqlite_version(*)[0m
  [1m[36mTRANSACTION (0.1ms)[0m  [1m[36mbegin transaction[0m
------------------------------------------------
StaticPagesControllerTest: test_should_get_about
------------------------------------------------
  [1m[35m (0.1ms)[0m  [1m[34mSELECT sqlite_version(*)[0m
  [1m[36mTRANSACTION (0.0ms)[0m  [1m[36mbegin transaction[0m
-----------------------------------------------
StaticPagesControllerTest: test_should_get_help
-----------------------------------------------
  [1m[36mTRANSACTION (0.1ms)[0m  [1m[31mrollback transaction[0m
Started GET "/static_pages/contact" for 127.0.0.1 at 2021-10-15 21:18:44 +0300
Started GET "/static_pages/about" for 127.0.0.1 at 2021-10-15 21:18:44 +0300
Processing by StaticPagesController#contact as HTML
Processing by StaticPagesController#about as HTML
Started GET "/static_pages/help" for 127.0.0.1 at 2021-10-15 21:18:44 +0300
Processing by StaticPagesController#help as HTML
  Rendering layout layouts/application.html.erb
  Rendering static_pages/contact.html.erb within layouts/application
  Rendering layout layouts/application.html.erb
  Rendering static_pages/about.html.erb within layouts/application
  Rendering layout layouts/application.html.erb
  Rendering static_pages/help.html.erb within layouts/application
  Rendered static_pages/contact.html.erb within layouts/application (Duration: 2.9ms | Allocations: 375)
  Rendered static_pages/help.html.erb within layouts/application (Duration: 1.2ms | Allocations: 92)
  Rendered static_pages/about.html.erb within layouts/application (Duration: 1.1ms | Allocations: 116)
[Webpacker] Everything's up-to-date. Nothing to do
[Webpacker] Everything's up-to-date. Nothing to do
[Webpacker] Everything's up-to-date. Nothing to do
  Rendered layouts/_shim.html.erb (Duration: 2.2ms | Allocations: 247)
  Rendered layouts/_shim.html.erb (Duration: 1.4ms | Allocations: 133)
  Rendered layouts/_shim.html.erb (Duration: 1.3ms | Allocations: 121)
  Rendered layouts/_header.html.erb (Duration: 2.2ms | Allocations: 350)
  Rendered layouts/_header.html.erb (Duration: 0.3ms | Allocations: 47)
  Rendered layouts/_header.html.erb (Duration: 1.9ms | Allocations: 363)
  Rendered layouts/_footer.html.erb (Duration: 1.8ms | Allocations: 272)
  Rendered layouts/_header.html.erb (Duration: 0.2ms | Allocations: 47)
  Rendered layout layouts/application.html.erb (Duration: 1430.2ms | Allocations: 107146)
Completed 200 OK in 1480ms (Views: 1453.2ms | ActiveRecord: 0.0ms | Allocations: 112643)
  Rendered layouts/_footer.html.erb (Duration: 1.5ms | Allocations: 237)
  Rendered layouts/_header.html.erb (Duration: 0.3ms | Allocations: 61)
  Rendered layout layouts/application.html.erb (Duration: 1435.9ms | Allocations: 108229)
Completed 200 OK in 1468ms (Views: 1445.8ms | ActiveRecord: 0.0ms | Allocations: 111682)
  [1m[36mTRANSACTION (0.1ms)[0m  [1m[31mrollback transaction[0m
  Rendered layouts/_footer.html.erb (Duration: 0.1ms | Allocations: 23)
  Rendered layouts/_header.html.erb (Duration: 0.2ms | Allocations: 47)
  Rendered layout layouts/application.html.erb (Duration: 1445.1ms | Allocations: 109230)
Completed 200 OK in 1479ms (Views: 1463.7ms | ActiveRecord: 0.0ms | Allocations: 113139)
  [1m[36mTRANSACTION (0.2ms)[0m  [1m[31mrollback transaction[0m
  [1m[36mTRANSACTION (0.1ms)[0m  [1m[31mrollback transaction[0m
  [1m[35m (0.9ms)[0m  [1m[34mSELECT sqlite_version(*)[0m
  [1m[35m (0.1ms)[0m  [1m[34mSELECT sqlite_version(*)[0m
  [1m[35m (0.1ms)[0m  [1m[34mSELECT sqlite_version(*)[0m
  [1m[36mTRANSACTION (0.1ms)[0m  [1m[36mbegin transaction[0m
--------------------------------------------------
StaticPagesControllerTest: test_should_get_contact
--------------------------------------------------
  [1m[35m (0.1ms)[0m  [1m[34mSELECT sqlite_version(*)[0m
  [1m[36mTRANSACTION (0.1ms)[0m  [1m[36mbegin transaction[0m
-----------------------------------------------
StaticPagesControllerTest: test_should_get_home
-----------------------------------------------
  [1m[35m (0.1ms)[0m  [1m[34mSELECT sqlite_version(*)[0m
  [1m[36mTRANSACTION (0.1ms)[0m  [1m[36mbegin transaction[0m
------------------------------------------------
StaticPagesControllerTest: test_should_get_about
------------------------------------------------
  [1m[35m (0.1ms)[0m  [1m[34mSELECT sqlite_version(*)[0m
  [1m[36mTRANSACTION (0.1ms)[0m  [1m[36mbegin transaction[0m
-----------------------------------------------
StaticPagesControllerTest: test_should_get_help
-----------------------------------------------
  [1m[36mTRANSACTION (0.1ms)[0m  [1m[31mrollback transaction[0m
Started GET "/static_pages/contact" for 127.0.0.1 at 2021-10-15 21:25:40 +0300
Started GET "/static_pages/about" for 127.0.0.1 at 2021-10-15 21:25:40 +0300
Processing by StaticPagesController#contact as HTML
Started GET "/static_pages/help" for 127.0.0.1 at 2021-10-15 21:25:40 +0300
Processing by StaticPagesController#help as HTML
Processing by StaticPagesController#about as HTML
  Rendering layout layouts/application.html.erb
  Rendering static_pages/contact.html.erb within layouts/application
  Rendering layout layouts/application.html.erb
  Rendering static_pages/about.html.erb within layouts/application
  Rendered static_pages/contact.html.erb within layouts/application (Duration: 3.5ms | Allocations: 384)
  Rendered static_pages/about.html.erb within layouts/application (Duration: 1.9ms | Allocations: 301)
  Rendering layout layouts/application.html.erb
  Rendering static_pages/help.html.erb within layouts/application
  Rendered static_pages/help.html.erb within layouts/application (Duration: 1.1ms | Allocations: 97)
[Webpacker] Everything's up-to-date. Nothing to do
[Webpacker] Everything's up-to-date. Nothing to do
[Webpacker] Everything's up-to-date. Nothing to do
  Rendered layouts/_shim.html.erb (Duration: 1.4ms | Allocations: 399)
  Rendered layouts/_shim.html.erb (Duration: 0.9ms | Allocations: 216)
  Rendered layouts/_shim.html.erb (Duration: 0.6ms | Allocations: 121)
  Rendered layouts/_header.html.erb (Duration: 1.4ms | Allocations: 377)
  Rendered layouts/_header.html.erb (Duration: 1.0ms | Allocations: 305)
  Rendered layouts/_header.html.erb (Duration: 1.0ms | Allocations: 334)
  Rendered layouts/_footer.html.erb (Duration: 0.9ms | Allocations: 272)
  Rendered layouts/_header.html.erb (Duration: 0.1ms | Allocations: 47)
  Rendered layout layouts/application.html.erb (Duration: 1567.4ms | Allocations: 110053)
Completed 200 OK in 1597ms (Views: 1574.2ms | ActiveRecord: 0.0ms | Allocations: 113301)
  [1m[36mTRANSACTION (0.1ms)[0m  [1m[31mrollback transaction[0m
  Rendered layouts/_footer.html.erb (Duration: 0.1ms | Allocations: 23)
  Rendered layouts/_header.html.erb (Duration: 0.3ms | Allocations: 61)
  Rendered layout layouts/application.html.erb (Duration: 1587.1ms | Allocations: 111907)
Completed 200 OK in 1635ms (Views: 1608.4ms | ActiveRecord: 0.0ms | Allocations: 117279)
  [1m[36mTRANSACTION (0.1ms)[0m  [1m[31mrollback transaction[0m
  Rendered layouts/_footer.html.erb (Duration: 0.7ms | Allocations: 237)
  Rendered layouts/_header.html.erb (Duration: 0.2ms | Allocations: 47)
  Rendered layout layouts/application.html.erb (Duration: 1592.4ms | Allocations: 111349)
Completed 200 OK in 1631ms (Views: 1612.7ms | ActiveRecord: 0.0ms | Allocations: 115877)
  [1m[36mTRANSACTION (0.1ms)[0m  [1m[31mrollback transaction[0m
  [1m[35m (0.7ms)[0m  [1m[34mSELECT sqlite_version(*)[0m
  [1m[35m (0.1ms)[0m  [1m[34mSELECT sqlite_version(*)[0m
  [1m[35m (0.1ms)[0m  [1m[34mSELECT sqlite_version(*)[0m
  [1m[36mTRANSACTION (0.1ms)[0m  [1m[36mbegin transaction[0m
--------------------------------------------------
StaticPagesControllerTest: test_should_get_contact
--------------------------------------------------
  [1m[35m (0.1ms)[0m  [1m[34mSELECT sqlite_version(*)[0m
  [1m[36mTRANSACTION (0.1ms)[0m  [1m[36mbegin transaction[0m
------------------------------------------------
StaticPagesControllerTest: test_should_get_about
------------------------------------------------
  [1m[35m (0.1ms)[0m  [1m[34mSELECT sqlite_version(*)[0m
  [1m[36mTRANSACTION (0.0ms)[0m  [1m[36mbegin transaction[0m
-----------------------------------------------
StaticPagesControllerTest: test_should_get_help
-----------------------------------------------
  [1m[35m (0.1ms)[0m  [1m[34mSELECT sqlite_version(*)[0m
  [1m[36mTRANSACTION (0.1ms)[0m  [1m[36mbegin transaction[0m
-----------------------------------------------
StaticPagesControllerTest: test_should_get_home
-----------------------------------------------
  [1m[36mTRANSACTION (0.1ms)[0m  [1m[31mrollback transaction[0m
Started GET "/static_pages/contact" for 127.0.0.1 at 2021-10-15 21:35:14 +0300
Started GET "/static_pages/help" for 127.0.0.1 at 2021-10-15 21:35:14 +0300
Started GET "/static_pages/about" for 127.0.0.1 at 2021-10-15 21:35:14 +0300
Processing by StaticPagesController#about as HTML
Processing by StaticPagesController#help as HTML
Processing by StaticPagesController#contact as HTML
  Rendering layout layouts/application.html.erb
  Rendering static_pages/contact.html.erb within layouts/application
  Rendering layout layouts/application.html.erb
  Rendering static_pages/help.html.erb within layouts/application
  Rendering layout layouts/application.html.erb
  Rendering static_pages/about.html.erb within layouts/application
  Rendered static_pages/contact.html.erb within layouts/application (Duration: 3.0ms | Allocations: 375)
  Rendered static_pages/help.html.erb within layouts/application (Duration: 1.4ms | Allocations: 114)
  Rendered static_pages/about.html.erb within layouts/application (Duration: 1.6ms | Allocations: 112)
  Rendered layout layouts/application.html.erb (Duration: 1297.2ms | Allocations: 91882)
Completed 500 Internal Server Error in 1365ms (ActiveRecord: 0.0ms | Allocations: 97237)
  [1m[36mTRANSACTION (0.2ms)[0m  [1m[31mrollback transaction[0m
  Rendered layout layouts/application.html.erb (Duration: 1354.9ms | Allocations: 98937)
Completed 500 Internal Server Error in 1413ms (ActiveRecord: 0.0ms | Allocations: 102963)
  [1m[36mTRANSACTION (0.3ms)[0m  [1m[31mrollback transaction[0m
[Webpacker] Everything's up-to-date. Nothing to do
  Rendered layouts/_shim.html.erb (Duration: 1.0ms | Allocations: 108)
  Rendered layouts/_header.html.erb (Duration: 1.9ms | Allocations: 222)
  Rendered layouts/_footer.html.erb (Duration: 1.0ms | Allocations: 141)
  Rendered layouts/_header.html.erb (Duration: 0.1ms | Allocations: 47)
  Rendered layout layouts/application.html.erb (Duration: 1399.0ms | Allocations: 102032)
Completed 200 OK in 1443ms (Views: 1431.3ms | ActiveRecord: 0.0ms | Allocations: 105431)
  [1m[36mTRANSACTION (0.1ms)[0m  [1m[31mrollback transaction[0m
  [1m[35m (4.8ms)[0m  [1m[34mSELECT sqlite_version(*)[0m
  [1m[35m (0.1ms)[0m  [1m[34mSELECT sqlite_version(*)[0m
  [1m[35m (0.1ms)[0m  [1m[34mSELECT sqlite_version(*)[0m
  [1m[36mTRANSACTION (0.1ms)[0m  [1m[36mbegin transaction[0m
-----------------------------------------------
StaticPagesControllerTest: test_should_get_help
-----------------------------------------------
  [1m[35m (0.1ms)[0m  [1m[34mSELECT sqlite_version(*)[0m
  [1m[36mTRANSACTION (0.1ms)[0m  [1m[36mbegin transaction[0m
-----------------------------------------------
StaticPagesControllerTest: test_should_get_home
-----------------------------------------------
  [1m[35m (0.1ms)[0m  [1m[34mSELECT sqlite_version(*)[0m
  [1m[36mTRANSACTION (0.1ms)[0m  [1m[36mbegin transaction[0m
--------------------------------------------------
StaticPagesControllerTest: test_should_get_contact
--------------------------------------------------
  [1m[35m (0.1ms)[0m  [1m[34mSELECT sqlite_version(*)[0m
  [1m[36mTRANSACTION (0.0ms)[0m  [1m[36mbegin transaction[0m
------------------------------------------------
StaticPagesControllerTest: test_should_get_about
------------------------------------------------
  [1m[36mTRANSACTION (0.1ms)[0m  [1m[31mrollback transaction[0m
Started GET "/static_pages/help" for 127.0.0.1 at 2021-10-15 21:43:56 +0300
Started GET "/static_pages/about" for 127.0.0.1 at 2021-10-15 21:43:56 +0300
Started GET "/static_pages/contact" for 127.0.0.1 at 2021-10-15 21:43:56 +0300
Processing by StaticPagesController#help as HTML
Processing by StaticPagesController#about as HTML
Processing by StaticPagesController#contact as HTML
  Rendering layout layouts/application.html.erb
  Rendering static_pages/contact.html.erb within layouts/application
  Rendering layout layouts/application.html.erb
  Rendering static_pages/about.html.erb within layouts/application
  Rendering layout layouts/application.html.erb
  Rendering static_pages/help.html.erb within layouts/application
  Rendered static_pages/contact.html.erb within layouts/application (Duration: 13.7ms | Allocations: 529)
  Rendered static_pages/about.html.erb within layouts/application (Duration: 11.9ms | Allocations: 514)
  Rendered static_pages/help.html.erb within layouts/application (Duration: 12.3ms | Allocations: 597)
[Webpacker] Compiling...
[Webpacker] Compiling...
[Webpacker] Compiling...
[Webpacker] Compiled all packs in C:/Users/timav/Documents/www/sample_up_working/public/packs-test
[Webpacker] Hash: 31b351f6be346d3a55f8
Version: webpack 4.46.0
Time: 6328ms
Built at: 15.10.2021 21:44:06
                                     Asset       Size       Chunks                         Chunk Names
    js/application-dd998cb6b794ecb7e8af.js    125 KiB  application  [emitted] [immutable]  application
js/application-dd998cb6b794ecb7e8af.js.map    139 KiB  application  [emitted] [dev]        application
                             manifest.json  384 bytes               [emitted]              
Entrypoint application = js/application-dd998cb6b794ecb7e8af.js js/application-dd998cb6b794ecb7e8af.js.map
[./app/javascript/channels sync recursive _channel\.js$] ./app/javascript/channels sync _channel\.js$ 160 bytes {application} [built]
[./app/javascript/channels/index.js] 211 bytes {application} [built]
[./app/javascript/packs/application.js] 492 bytes {application} [built]
[./node_modules/webpack/buildin/module.js] (webpack)/buildin/module.js 552 bytes {application} [built]
    + 3 hidden modules

[Webpacker] Compiled all packs in C:/Users/timav/Documents/www/sample_up_working/public/packs-test
[Webpacker] Hash: 31b351f6be346d3a55f8
Version: webpack 4.46.0
Time: 6290ms
Built at: 15.10.2021 21:44:06
                                     Asset       Size       Chunks                         Chunk Names
    js/application-dd998cb6b794ecb7e8af.js    125 KiB  application  [emitted] [immutable]  application
js/application-dd998cb6b794ecb7e8af.js.map    139 KiB  application  [emitted] [dev]        application
                             manifest.json  384 bytes               [emitted]              
Entrypoint application = js/application-dd998cb6b794ecb7e8af.js js/application-dd998cb6b794ecb7e8af.js.map
[./app/javascript/channels sync recursive _channel\.js$] ./app/javascript/channels sync _channel\.js$ 160 bytes {application} [built]
[./app/javascript/channels/index.js] 211 bytes {application} [built]
[./app/javascript/packs/application.js] 492 bytes {application} [built]
[./node_modules/webpack/buildin/module.js] (webpack)/buildin/module.js 552 bytes {application} [built]
    + 3 hidden modules

[Webpacker] Compiled all packs in C:/Users/timav/Documents/www/sample_up_working/public/packs-test
[Webpacker] Hash: 31b351f6be346d3a55f8
Version: webpack 4.46.0
Time: 6299ms
Built at: 15.10.2021 21:44:06
                                     Asset       Size       Chunks                         Chunk Names
    js/application-dd998cb6b794ecb7e8af.js    125 KiB  application  [emitted] [immutable]  application
js/application-dd998cb6b794ecb7e8af.js.map    139 KiB  application  [emitted] [dev]        application
                             manifest.json  384 bytes               [emitted]              
Entrypoint application = js/application-dd998cb6b794ecb7e8af.js js/application-dd998cb6b794ecb7e8af.js.map
[./app/javascript/channels sync recursive _channel\.js$] ./app/javascript/channels sync _channel\.js$ 160 bytes {application} [built]
[./app/javascript/channels/index.js] 211 bytes {application} [built]
[./app/javascript/packs/application.js] 492 bytes {application} [built]
[./node_modules/webpack/buildin/module.js] (webpack)/buildin/module.js 552 bytes {application} [built]
    + 3 hidden modules

  Rendered layouts/_shim.html.erb (Duration: 2.1ms | Allocations: 163)
  Rendered layouts/_shim.html.erb (Duration: 0.1ms | Allocations: 6)
  Rendered layouts/_shim.html.erb (Duration: 2.4ms | Allocations: 195)
  Rendered layouts/_header.html.erb (Duration: 2.1ms | Allocations: 350)
  Rendered layouts/_header.html.erb (Duration: 0.3ms | Allocations: 47)
  Rendered layouts/_header.html.erb (Duration: 1.8ms | Allocations: 363)
  Rendered layouts/_footer.html.erb (Duration: 2.2ms | Allocations: 272)
  Rendered layouts/_header.html.erb (Duration: 0.2ms | Allocations: 47)
  Rendered layout layouts/application.html.erb (Duration: 10063.7ms | Allocations: 9085)
Completed 200 OK in 10222ms (Views: 10112.9ms | ActiveRecord: 0.0ms | Allocations: 14656)
  Rendered layouts/_footer.html.erb (Duration: 1.8ms | Allocations: 237)
  Rendered layouts/_header.html.erb (Duration: 0.2ms | Allocations: 47)
  Rendered layout layouts/application.html.erb (Duration: 10066.0ms | Allocations: 9680)
Completed 200 OK in 10232ms (Views: 10126.9ms | ActiveRecord: 0.0ms | Allocations: 15722)
  Rendered layouts/_footer.html.erb (Duration: 0.1ms | Allocations: 23)
  Rendered layouts/_header.html.erb (Duration: 0.2ms | Allocations: 47)
  Rendered layout layouts/application.html.erb (Duration: 10069.4ms | Allocations: 10110)
Completed 200 OK in 10230ms (Views: 10119.4ms | ActiveRecord: 0.0ms | Allocations: 15707)
  [1m[36mTRANSACTION (0.2ms)[0m  [1m[31mrollback transaction[0m
  [1m[36mTRANSACTION (0.1ms)[0m  [1m[31mrollback transaction[0m
  [1m[36mTRANSACTION (0.1ms)[0m  [1m[31mrollback transaction[0m
  [1m[35m (0.8ms)[0m  [1m[34mSELECT sqlite_version(*)[0m
  [1m[35m (0.1ms)[0m  [1m[34mSELECT sqlite_version(*)[0m
  [1m[35m (0.1ms)[0m  [1m[34mSELECT sqlite_version(*)[0m
  [1m[36mTRANSACTION (0.1ms)[0m  [1m[36mbegin transaction[0m
--------------------------------------------------
StaticPagesControllerTest: test_should_get_contact
--------------------------------------------------
  [1m[35m (0.1ms)[0m  [1m[34mSELECT sqlite_version(*)[0m
  [1m[36mTRANSACTION (0.1ms)[0m  [1m[36mbegin transaction[0m
-----------------------------------------------
StaticPagesControllerTest: test_should_get_home
-----------------------------------------------
  [1m[35m (0.1ms)[0m  [1m[34mSELECT sqlite_version(*)[0m
  [1m[36mTRANSACTION (0.1ms)[0m  [1m[36mbegin transaction[0m
------------------------------------------------
StaticPagesControllerTest: test_should_get_about
------------------------------------------------
  [1m[35m (0.1ms)[0m  [1m[34mSELECT sqlite_version(*)[0m
  [1m[36mTRANSACTION (0.1ms)[0m  [1m[36mbegin transaction[0m
-----------------------------------------------
StaticPagesControllerTest: test_should_get_help
-----------------------------------------------
Started GET "/static_pages/contact" for 127.0.0.1 at 2021-10-15 21:53:20 +0300
Started GET "/" for 127.0.0.1 at 2021-10-15 21:53:20 +0300
Started GET "/static_pages/about" for 127.0.0.1 at 2021-10-15 21:53:20 +0300
Processing by StaticPagesController#about as HTML
Started GET "/static_pages/help" for 127.0.0.1 at 2021-10-15 21:53:20 +0300
Processing by StaticPagesController#help as HTML
Processing by StaticPagesController#home as HTML
Processing by StaticPagesController#contact as HTML
  Rendering layout layouts/application.html.erb
  Rendering static_pages/about.html.erb within layouts/application
  Rendering layout layouts/application.html.erb
  Rendering static_pages/home.html.erb within layouts/application
  Rendering layout layouts/application.html.erb
  Rendering static_pages/contact.html.erb within layouts/application
  Rendered static_pages/home.html.erb within layouts/application (Duration: 1.0ms | Allocations: 335)
  Rendered static_pages/contact.html.erb within layouts/application (Duration: 1.1ms | Allocations: 422)
  Rendering layout layouts/application.html.erb
  Rendering static_pages/help.html.erb within layouts/application
  Rendered static_pages/about.html.erb within layouts/application (Duration: 1.2ms | Allocations: 380)
  Rendered static_pages/help.html.erb within layouts/application (Duration: 1.5ms | Allocations: 396)
[Webpacker] Everything's up-to-date. Nothing to do
[Webpacker] Everything's up-to-date. Nothing to do
[Webpacker] Everything's up-to-date. Nothing to do
[Webpacker] Everything's up-to-date. Nothing to do
  Rendered layouts/_shim.html.erb (Duration: 0.8ms | Allocations: 364)
  Rendered layouts/_shim.html.erb (Duration: 0.8ms | Allocations: 351)
  Rendered layouts/_shim.html.erb (Duration: 0.6ms | Allocations: 201)
  Rendered layouts/_shim.html.erb (Duration: 0.0ms | Allocations: 6)
  Rendered layouts/_header.html.erb (Duration: 0.8ms | Allocations: 341)
  Rendered layouts/_header.html.erb (Duration: 0.1ms | Allocations: 47)
  Rendered layouts/_header.html.erb (Duration: 0.1ms | Allocations: 47)
  Rendered layouts/_header.html.erb (Duration: 1.3ms | Allocations: 538)
  Rendered layouts/_footer.html.erb (Duration: 1.5ms | Allocations: 351)
  Rendered layouts/_header.html.erb (Duration: 0.1ms | Allocations: 47)
  Rendered layout layouts/application.html.erb (Duration: 38.5ms | Allocations: 7373)
Completed 200 OK in 56ms (Views: 46.1ms | ActiveRecord: 0.0ms | Allocations: 11327)
  [1m[36mTRANSACTION (0.1ms)[0m  [1m[31mrollback transaction[0m
  Rendered layouts/_footer.html.erb (Duration: 1.1ms | Allocations: 316)
  Rendered layouts/_header.html.erb (Duration: 0.1ms | Allocations: 61)
  Rendered layout layouts/application.html.erb (Duration: 47.7ms | Allocations: 9472)
Completed 200 OK in 74ms (Views: 60.7ms | ActiveRecord: 0.0ms | Allocations: 15226)
  [1m[36mTRANSACTION (0.1ms)[0m  [1m[31mrollback transaction[0m
  Rendered layouts/_footer.html.erb (Duration: 1.2ms | Allocations: 321)
  Rendered layouts/_header.html.erb (Duration: 0.1ms | Allocations: 47)
  Rendered layout layouts/application.html.erb (Duration: 48.4ms | Allocations: 9638)
Completed 200 OK in 61ms (Views: 53.0ms | ActiveRecord: 0.0ms | Allocations: 12036)
  [1m[36mTRANSACTION (0.1ms)[0m  [1m[31mrollback transaction[0m
  Rendered layouts/_footer.html.erb (Duration: 0.0ms | Allocations: 23)
  Rendered layouts/_header.html.erb (Duration: 0.1ms | Allocations: 47)
  Rendered layout layouts/application.html.erb (Duration: 47.7ms | Allocations: 8659)
Completed 200 OK in 71ms (Views: 60.8ms | ActiveRecord: 0.0ms | Allocations: 14541)
  [1m[36mTRANSACTION (0.1ms)[0m  [1m[31mrollback transaction[0m
  [1m[35m (0.6ms)[0m  [1m[34mSELECT sqlite_version(*)[0m
  [1m[35m (0.1ms)[0m  [1m[34mSELECT sqlite_version(*)[0m
  [1m[35m (0.1ms)[0m  [1m[34mSELECT sqlite_version(*)[0m
  [1m[36mTRANSACTION (0.1ms)[0m  [1m[36mbegin transaction[0m
-----------------------------------------------
StaticPagesControllerTest: test_should_get_help
-----------------------------------------------
  [1m[35m (0.1ms)[0m  [1m[34mSELECT sqlite_version(*)[0m
  [1m[36mTRANSACTION (0.1ms)[0m  [1m[36mbegin transaction[0m
-----------------------------------------------
StaticPagesControllerTest: test_should_get_home
-----------------------------------------------
  [1m[35m (0.1ms)[0m  [1m[34mSELECT sqlite_version(*)[0m
  [1m[36mTRANSACTION (0.1ms)[0m  [1m[36mbegin transaction[0m
--------------------------------------------------
StaticPagesControllerTest: test_should_get_contact
--------------------------------------------------
  [1m[35m (0.1ms)[0m  [1m[34mSELECT sqlite_version(*)[0m
  [1m[36mTRANSACTION (0.1ms)[0m  [1m[36mbegin transaction[0m
------------------------------------------------
StaticPagesControllerTest: test_should_get_about
------------------------------------------------
Started GET "/static_pages/help" for 127.0.0.1 at 2021-10-15 21:56:27 +0300
Started GET "/static_pages/contact" for 127.0.0.1 at 2021-10-15 21:56:27 +0300
Processing by StaticPagesController#help as HTML
Processing by StaticPagesController#contact as HTML
Started GET "/" for 127.0.0.1 at 2021-10-15 21:56:27 +0300
Processing by StaticPagesController#home as HTML
Started GET "/static_pages/about" for 127.0.0.1 at 2021-10-15 21:56:27 +0300
Processing by StaticPagesController#about as HTML
  Rendering layout layouts/application.html.erb
  Rendering static_pages/help.html.erb within layouts/application
  Rendering layout layouts/application.html.erb
  Rendering static_pages/about.html.erb within layouts/application
  Rendering layout layouts/application.html.erb
  Rendering static_pages/contact.html.erb within layouts/application
  Rendered static_pages/about.html.erb within layouts/application (Duration: 0.8ms | Allocations: 125)
  Rendered static_pages/contact.html.erb within layouts/application (Duration: 1.3ms | Allocations: 213)
  Rendering layout layouts/application.html.erb
  Rendering static_pages/home.html.erb within layouts/application
  Rendered static_pages/help.html.erb within layouts/application (Duration: 2.5ms | Allocations: 644)
  Rendered static_pages/home.html.erb within layouts/application (Duration: 10.5ms | Allocations: 528)
[Webpacker] Everything's up-to-date. Nothing to do
[Webpacker] Everything's up-to-date. Nothing to do
[Webpacker] Everything's up-to-date. Nothing to do
  Rendered layouts/_shim.html.erb (Duration: 12.6ms | Allocations: 457)
[Webpacker] Everything's up-to-date. Nothing to do
  Rendered layouts/_shim.html.erb (Duration: 1.0ms | Allocations: 117)
  Rendered layouts/_shim.html.erb (Duration: 1.5ms | Allocations: 277)
  Rendered layouts/_shim.html.erb (Duration: 0.1ms | Allocations: 6)
  Rendered layouts/_header.html.erb (Duration: 29.7ms | Allocations: 502)
  Rendered layouts/_header.html.erb (Duration: 0.2ms | Allocations: 47)
  Rendered layouts/_header.html.erb (Duration: 21.0ms | Allocations: 434)
  Rendered layouts/_header.html.erb (Duration: 1.8ms | Allocations: 414)
  Rendered layouts/_footer.html.erb (Duration: 2.4ms | Allocations: 351)
  Rendered layouts/_header.html.erb (Duration: 0.2ms | Allocations: 47)
  Rendered layout layouts/application.html.erb (Duration: 158.8ms | Allocations: 7275)
Completed 200 OK in 164ms (Views: 160.0ms | ActiveRecord: 0.0ms | Allocations: 8291)
  [1m[36mTRANSACTION (0.1ms)[0m  [1m[31mrollback transaction[0m
  Rendered layouts/_footer.html.erb (Duration: 1.8ms | Allocations: 316)
  Rendered layouts/_header.html.erb (Duration: 0.3ms | Allocations: 61)
  Rendered layout layouts/application.html.erb (Duration: 170.1ms | Allocations: 9596)
  Rendered layouts/_footer.html.erb (Duration: 1.5ms | Allocations: 272)
  Rendered layouts/_header.html.erb (Duration: 0.2ms | Allocations: 47)
  Rendered layout layouts/application.html.erb (Duration: 168.1ms | Allocations: 8953)
Completed 200 OK in 195ms (Views: 183.9ms | ActiveRecord: 0.0ms | Allocations: 13805)
  [1m[36mTRANSACTION (0.1ms)[0m  [1m[31mrollback transaction[0m
  Rendered layouts/_footer.html.erb (Duration: 0.1ms | Allocations: 23)
  Rendered layouts/_header.html.erb (Duration: 0.2ms | Allocations: 47)
  Rendered layout layouts/application.html.erb (Duration: 161.2ms | Allocations: 8162)
Completed 200 OK in 187ms (Views: 181.3ms | ActiveRecord: 0.0ms | Allocations: 11869)
  [1m[36mTRANSACTION (0.1ms)[0m  [1m[31mrollback transaction[0m
Completed 200 OK in 205ms (Views: 189.9ms | ActiveRecord: 0.0ms | Allocations: 15362)
  [1m[36mTRANSACTION (0.1ms)[0m  [1m[31mrollback transaction[0m
  [1m[35m (0.7ms)[0m  [1m[34mSELECT sqlite_version(*)[0m
  [1m[35m (0.1ms)[0m  [1m[34mSELECT sqlite_version(*)[0m
  [1m[35m (0.1ms)[0m  [1m[34mSELECT sqlite_version(*)[0m
  [1m[36mTRANSACTION (0.0ms)[0m  [1m[36mbegin transaction[0m
------------------------------------------------
StaticPagesControllerTest: test_should_get_about
------------------------------------------------
  [1m[35m (0.1ms)[0m  [1m[34mSELECT sqlite_version(*)[0m
  [1m[36mTRANSACTION (0.1ms)[0m  [1m[36mbegin transaction[0m
-----------------------------------------------
StaticPagesControllerTest: test_should_get_home
-----------------------------------------------
  [1m[35m (0.1ms)[0m  [1m[34mSELECT sqlite_version(*)[0m
  [1m[36mTRANSACTION (0.1ms)[0m  [1m[36mbegin transaction[0m
--------------------------------------------------
StaticPagesControllerTest: test_should_get_contact
--------------------------------------------------
  [1m[35m (0.1ms)[0m  [1m[34mSELECT sqlite_version(*)[0m
  [1m[36mTRANSACTION (0.1ms)[0m  [1m[36mbegin transaction[0m
-----------------------------------------------
StaticPagesControllerTest: test_should_get_help
-----------------------------------------------
Started GET "/static_pages/about" for 127.0.0.1 at 2021-10-15 21:58:19 +0300
Started GET "/" for 127.0.0.1 at 2021-10-15 21:58:19 +0300
Started GET "/static_pages/contact" for 127.0.0.1 at 2021-10-15 21:58:19 +0300
Processing by StaticPagesController#about as HTML
Processing by StaticPagesController#home as HTML
Processing by StaticPagesController#contact as HTML
Started GET "/static_pages/help" for 127.0.0.1 at 2021-10-15 21:58:19 +0300
Processing by StaticPagesController#help as HTML
  Rendering layout layouts/application.html.erb
  Rendering static_pages/about.html.erb within layouts/application
  Rendering layout layouts/application.html.erb
  Rendering static_pages/help.html.erb within layouts/application
  Rendering layout layouts/application.html.erb
  Rendering static_pages/contact.html.erb within layouts/application
  Rendered static_pages/about.html.erb within layouts/application (Duration: 2.6ms | Allocations: 380)
  Rendered static_pages/contact.html.erb within layouts/application (Duration: 1.7ms | Allocations: 211)
  Rendered static_pages/help.html.erb within layouts/application (Duration: 1.4ms | Allocations: 125)
  Rendering layout layouts/application.html.erb
  Rendering static_pages/home.html.erb within layouts/application
  Rendered static_pages/home.html.erb within layouts/application (Duration: 1.4ms | Allocations: 227)
[Webpacker] Everything's up-to-date. Nothing to do
[Webpacker] Everything's up-to-date. Nothing to do
[Webpacker] Everything's up-to-date. Nothing to do
[Webpacker] Everything's up-to-date. Nothing to do
  Rendered layouts/_shim.html.erb (Duration: 0.9ms | Allocations: 300)
  Rendered layouts/_shim.html.erb (Duration: 0.0ms | Allocations: 6)
  Rendered layouts/_shim.html.erb (Duration: 0.0ms | Allocations: 6)
  Rendered layouts/_shim.html.erb (Duration: 1.0ms | Allocations: 323)
  Rendered layouts/_header.html.erb (Duration: 1.3ms | Allocations: 418)
  Rendered layouts/_header.html.erb (Duration: 1.8ms | Allocations: 556)
  Rendered layouts/_header.html.erb (Duration: 1.0ms | Allocations: 431)
  Rendered layouts/_header.html.erb (Duration: 0.1ms | Allocations: 47)
  Rendered layouts/_footer.html.erb (Duration: 0.9ms | Allocations: 324)
  Rendered layouts/_header.html.erb (Duration: 0.1ms | Allocations: 47)
  Rendered layout layouts/application.html.erb (Duration: 59.1ms | Allocations: 7759)
Completed 200 OK in 125ms (Views: 94.6ms | ActiveRecord: 0.0ms | Allocations: 13794)
  [1m[36mTRANSACTION (0.1ms)[0m  [1m[31mrollback transaction[0m
  Rendered layouts/_footer.html.erb (Duration: 0.0ms | Allocations: 23)
  Rendered layouts/_header.html.erb (Duration: 0.1ms | Allocations: 61)
  Rendered layout layouts/application.html.erb (Duration: 60.4ms | Allocations: 9033)
Completed 200 OK in 123ms (Views: 91.7ms | ActiveRecord: 0.0ms | Allocations: 14386)
  [1m[36mTRANSACTION (0.1ms)[0m  [1m[31mrollback transaction[0m
  Rendered layouts/_footer.html.erb (Duration: 0.9ms | Allocations: 350)
  Rendered layouts/_header.html.erb (Duration: 0.1ms | Allocations: 47)
  Rendered layout layouts/application.html.erb (Duration: 64.5ms | Allocations: 9937)
Completed 200 OK in 108ms (Views: 82.3ms | ActiveRecord: 0.0ms | Allocations: 13737)
  [1m[36mTRANSACTION (0.1ms)[0m  [1m[31mrollback transaction[0m
  Rendered layouts/_footer.html.erb (Duration: 0.0ms | Allocations: 23)
  Rendered layouts/_header.html.erb (Duration: 0.1ms | Allocations: 47)
  Rendered layout layouts/application.html.erb (Duration: 55.9ms | Allocations: 8541)
Completed 200 OK in 128ms (Views: 94.2ms | ActiveRecord: 0.0ms | Allocations: 15639)
  [1m[36mTRANSACTION (0.0ms)[0m  [1m[31mrollback transaction[0m
  [1m[35m (0.8ms)[0m  [1m[34mSELECT sqlite_version(*)[0m
  [1m[35m (0.1ms)[0m  [1m[34mSELECT sqlite_version(*)[0m
  [1m[35m (0.1ms)[0m  [1m[34mSELECT sqlite_version(*)[0m
  [1m[36mTRANSACTION (0.0ms)[0m  [1m[36mbegin transaction[0m
---------------------------------
SiteLayoutTest: test_layout_links
---------------------------------
Started GET "/" for 127.0.0.1 at 2021-10-15 23:37:33 +0300
Processing by StaticPagesController#home as HTML
  Rendering layout layouts/application.html.erb
  Rendering static_pages/home.html.erb within layouts/application
  Rendered static_pages/home.html.erb within layouts/application (Duration: 1.5ms | Allocations: 572)
[Webpacker] Everything's up-to-date. Nothing to do
  Rendered layouts/_shim.html.erb (Duration: 0.4ms | Allocations: 84)
  Rendered layouts/_header.html.erb (Duration: 0.6ms | Allocations: 291)
  Rendered layouts/_footer.html.erb (Duration: 0.4ms | Allocations: 161)
  Rendered layouts/_header.html.erb (Duration: 0.1ms | Allocations: 68)
  Rendered layout layouts/application.html.erb (Duration: 13.7ms | Allocations: 3367)
Completed 200 OK in 56ms (Views: 21.0ms | ActiveRecord: 0.0ms | Allocations: 7000)
  [1m[36mTRANSACTION (0.1ms)[0m  [1m[31mrollback transaction[0m
  [1m[35m (0.6ms)[0m  [1m[34mSELECT sqlite_version(*)[0m
  [1m[35m (0.1ms)[0m  [1m[34mSELECT sqlite_version(*)[0m
  [1m[35m (0.1ms)[0m  [1m[34mSELECT sqlite_version(*)[0m
  [1m[36mTRANSACTION (0.0ms)[0m  [1m[36mbegin transaction[0m
---------------------------------
SiteLayoutTest: test_layout_links
---------------------------------
Started GET "/" for 127.0.0.1 at 2021-10-15 23:42:39 +0300
Processing by StaticPagesController#home as HTML
  Rendering layout layouts/application.html.erb
  Rendering static_pages/home.html.erb within layouts/application
  Rendered static_pages/home.html.erb within layouts/application (Duration: 6.7ms | Allocations: 586)
[Webpacker] Everything's up-to-date. Nothing to do
  Rendered layouts/_shim.html.erb (Duration: 0.4ms | Allocations: 92)
  Rendered layouts/_header.html.erb (Duration: 5.8ms | Allocations: 299)
  Rendered layouts/_footer.html.erb (Duration: 6.3ms | Allocations: 169)
  Rendered layouts/_header.html.erb (Duration: 0.1ms | Allocations: 75)
  Rendered layout layouts/application.html.erb (Duration: 42.3ms | Allocations: 3417)
Completed 200 OK in 57ms (Views: 48.4ms | ActiveRecord: 0.0ms | Allocations: 7046)
  [1m[36mTRANSACTION (0.1ms)[0m  [1m[31mrollback transaction[0m
  [1m[35m (0.9ms)[0m  [1m[34mSELECT sqlite_version(*)[0m
  [1m[35m (0.1ms)[0m  [1m[34mSELECT sqlite_version(*)[0m
  [1m[35m (0.1ms)[0m  [1m[34mSELECT sqlite_version(*)[0m
  [1m[36mTRANSACTION (0.0ms)[0m  [1m[36mbegin transaction[0m
---------------------------------
SiteLayoutTest: test_layout_links
---------------------------------
Started GET "/" for 127.0.0.1 at 2021-10-17 14:32:13 +0300
Processing by StaticPagesController#home as HTML
  Rendering layout layouts/application.html.erb
  Rendering static_pages/home.html.erb within layouts/application
  Rendered static_pages/home.html.erb within layouts/application (Duration: 1.3ms | Allocations: 586)
[Webpacker] Everything's up-to-date. Nothing to do
  Rendered layouts/_shim.html.erb (Duration: 0.4ms | Allocations: 92)
  Rendered layouts/_header.html.erb (Duration: 0.5ms | Allocations: 251)
  Rendered layouts/_footer.html.erb (Duration: 0.5ms | Allocations: 169)
  Rendered layouts/_header.html.erb (Duration: 0.1ms | Allocations: 54)
  Rendered layout layouts/application.html.erb (Duration: 15.2ms | Allocations: 3348)
Completed 200 OK in 32ms (Views: 22.1ms | ActiveRecord: 0.0ms | Allocations: 6977)
  [1m[36mTRANSACTION (0.1ms)[0m  [1m[31mrollback transaction[0m
  [1m[35m (1.1ms)[0m  [1m[34mSELECT sqlite_version(*)[0m
  [1m[35m (0.1ms)[0m  [1m[34mSELECT sqlite_version(*)[0m
  [1m[35m (0.1ms)[0m  [1m[34mSELECT sqlite_version(*)[0m
  [1m[36mTRANSACTION (0.1ms)[0m  [1m[36mbegin transaction[0m
---------------------------------
SiteLayoutTest: test_layout_links
---------------------------------
  [1m[35m (0.2ms)[0m  [1m[34mSELECT sqlite_version(*)[0m
  [1m[36mTRANSACTION (0.1ms)[0m  [1m[36mbegin transaction[0m
-----------------------------------------------
StaticPagesControllerTest: test_should_get_help
-----------------------------------------------
  [1m[35m (0.1ms)[0m  [1m[34mSELECT sqlite_version(*)[0m
  [1m[36mTRANSACTION (0.1ms)[0m  [1m[36mbegin transaction[0m
--------------------------------------------------
StaticPagesControllerTest: test_should_get_contact
--------------------------------------------------
  [1m[35m (0.1ms)[0m  [1m[34mSELECT sqlite_version(*)[0m
  [1m[36mTRANSACTION (0.1ms)[0m  [1m[36mbegin transaction[0m
------------------------------------------------
StaticPagesControllerTest: test_should_get_about
------------------------------------------------
  [1m[36mTRANSACTION (0.1ms)[0m  [1m[31mrollback transaction[0m
  [1m[36mTRANSACTION (0.1ms)[0m  [1m[31mrollback transaction[0m
  [1m[36mTRANSACTION (0.1ms)[0m  [1m[31mrollback transaction[0m
  [1m[36mTRANSACTION (0.1ms)[0m  [1m[36mbegin transaction[0m
-----------------------------------------------
StaticPagesControllerTest: test_should_get_home
-----------------------------------------------
Started GET "/" for 127.0.0.1 at 2021-10-17 15:20:27 +0300
Processing by StaticPagesController#home as HTML
Started GET "/" for 127.0.0.1 at 2021-10-17 15:20:27 +0300
Processing by StaticPagesController#home as HTML
  Rendering layout layouts/application.html.erb
  Rendering static_pages/home.html.erb within layouts/application
  Rendering layout layouts/application.html.erb
  Rendering static_pages/home.html.erb within layouts/application
  Rendered static_pages/home.html.erb within layouts/application (Duration: 0.3ms | Allocations: 72)
  Rendered static_pages/home.html.erb within layouts/application (Duration: 2.7ms | Allocations: 626)
[Webpacker] Everything's up-to-date. Nothing to do
[Webpacker] Everything's up-to-date. Nothing to do
  Rendered layouts/_shim.html.erb (Duration: 0.9ms | Allocations: 148)
  Rendered layouts/_shim.html.erb (Duration: 0.1ms | Allocations: 20)
  Rendered layouts/_header.html.erb (Duration: 1.2ms | Allocations: 307)
  Rendered layouts/_header.html.erb (Duration: 0.2ms | Allocations: 70)
  Rendered layouts/_footer.html.erb (Duration: 1.1ms | Allocations: 225)
  Rendered layouts/_header.html.erb (Duration: 0.2ms | Allocations: 61)
  Rendered layout layouts/application.html.erb (Duration: 38.9ms | Allocations: 4751)
Completed 200 OK in 48ms (Views: 47.5ms | ActiveRecord: 0.0ms | Allocations: 5891)
  [1m[36mTRANSACTION (0.1ms)[0m  [1m[31mrollback transaction[0m
  Rendered layouts/_footer.html.erb (Duration: 0.2ms | Allocations: 55)
  Rendered layouts/_header.html.erb (Duration: 0.3ms | Allocations: 79)
  Rendered layout layouts/application.html.erb (Duration: 51.1ms | Allocations: 6598)
Completed 200 OK in 88ms (Views: 67.8ms | ActiveRecord: 0.0ms | Allocations: 11297)
  [1m[36mTRANSACTION (0.1ms)[0m  [1m[31mrollback transaction[0m
  [1m[35m (1.1ms)[0m  [1m[34mSELECT sqlite_version(*)[0m
  [1m[35m (0.1ms)[0m  [1m[34mSELECT sqlite_version(*)[0m
  [1m[35m (0.1ms)[0m  [1m[34mSELECT sqlite_version(*)[0m
  [1m[36mTRANSACTION (0.1ms)[0m  [1m[36mbegin transaction[0m
---------------------------------
SiteLayoutTest: test_layout_links
---------------------------------
  [1m[35m (0.1ms)[0m  [1m[34mSELECT sqlite_version(*)[0m
  [1m[36mTRANSACTION (0.1ms)[0m  [1m[36mbegin transaction[0m
--------------------------------------------------
StaticPagesControllerTest: test_should_get_contact
--------------------------------------------------
  [1m[35m (0.1ms)[0m  [1m[34mSELECT sqlite_version(*)[0m
  [1m[36mTRANSACTION (0.1ms)[0m  [1m[36mbegin transaction[0m
------------------------------------------------
StaticPagesControllerTest: test_should_get_about
------------------------------------------------
  [1m[35m (0.1ms)[0m  [1m[34mSELECT sqlite_version(*)[0m
  [1m[36mTRANSACTION (0.1ms)[0m  [1m[36mbegin transaction[0m
-----------------------------------------------
StaticPagesControllerTest: test_should_get_help
-----------------------------------------------
  [1m[36mTRANSACTION (0.1ms)[0m  [1m[31mrollback transaction[0m
  [1m[36mTRANSACTION (0.1ms)[0m  [1m[31mrollback transaction[0m
  [1m[36mTRANSACTION (0.1ms)[0m  [1m[31mrollback transaction[0m
  [1m[36mTRANSACTION (0.1ms)[0m  [1m[36mbegin transaction[0m
-----------------------------------------------
StaticPagesControllerTest: test_should_get_home
-----------------------------------------------
Started GET "/" for 127.0.0.1 at 2021-10-17 15:21:13 +0300
Processing by StaticPagesController#home as HTML
Started GET "/" for 127.0.0.1 at 2021-10-17 15:21:13 +0300
Processing by StaticPagesController#home as HTML
  Rendering layout layouts/application.html.erb
  Rendering static_pages/home.html.erb within layouts/application
  Rendering layout layouts/application.html.erb
  Rendering static_pages/home.html.erb within layouts/application
  Rendered static_pages/home.html.erb within layouts/application (Duration: 0.3ms | Allocations: 72)
  Rendered static_pages/home.html.erb within layouts/application (Duration: 2.4ms | Allocations: 626)
[Webpacker] Everything's up-to-date. Nothing to do
[Webpacker] Everything's up-to-date. Nothing to do
  Rendered layouts/_shim.html.erb (Duration: 0.7ms | Allocations: 102)
  Rendered layouts/_shim.html.erb (Duration: 0.1ms | Allocations: 20)
  Rendered layouts/_header.html.erb (Duration: 1.5ms | Allocations: 339)
  Rendered layouts/_header.html.erb (Duration: 1.2ms | Allocations: 335)
  Rendered layouts/_footer.html.erb (Duration: 1.2ms | Allocations: 257)
  Rendered layouts/_header.html.erb (Duration: 0.2ms | Allocations: 61)
  Rendered layout layouts/application.html.erb (Duration: 41.3ms | Allocations: 4753)
Completed 200 OK in 55ms (Views: 54.5ms | ActiveRecord: 0.0ms | Allocations: 6173)
  [1m[36mTRANSACTION (0.1ms)[0m  [1m[31mrollback transaction[0m
  Rendered layouts/_footer.html.erb (Duration: 1.0ms | Allocations: 238)
  Rendered layouts/_header.html.erb (Duration: 0.3ms | Allocations: 79)
  Rendered layout layouts/application.html.erb (Duration: 49.6ms | Allocations: 6600)
Completed 200 OK in 86ms (Views: 66.3ms | ActiveRecord: 0.0ms | Allocations: 11365)
  [1m[36mTRANSACTION (0.1ms)[0m  [1m[31mrollback transaction[0m
  [1m[35m (0.6ms)[0m  [1m[34mSELECT sqlite_version(*)[0m
  [1m[35m (0.1ms)[0m  [1m[34mSELECT sqlite_version(*)[0m
  [1m[35m (0.1ms)[0m  [1m[34mSELECT sqlite_version(*)[0m
  [1m[36mTRANSACTION (0.0ms)[0m  [1m[36mbegin transaction[0m
--------------------------------------------------
StaticPagesControllerTest: test_should_get_contact
--------------------------------------------------
  [1m[35m (0.0ms)[0m  [1m[34mSELECT sqlite_version(*)[0m
  [1m[36mTRANSACTION (0.1ms)[0m  [1m[36mbegin transaction[0m
-----------------------------------------------
StaticPagesControllerTest: test_should_get_help
-----------------------------------------------
  [1m[36mTRANSACTION (0.1ms)[0m  [1m[31mrollback transaction[0m
  [1m[35m (0.0ms)[0m  [1m[34mSELECT sqlite_version(*)[0m
  [1m[36mTRANSACTION (0.0ms)[0m  [1m[36mbegin transaction[0m
-----------------------------------------------
StaticPagesControllerTest: test_should_get_home
-----------------------------------------------
  [1m[36mTRANSACTION (0.0ms)[0m  [1m[31mrollback transaction[0m
  [1m[36mTRANSACTION (0.1ms)[0m  [1m[36mbegin transaction[0m
---------------------------------
SiteLayoutTest: test_layout_links
---------------------------------
Started GET "/" for 127.0.0.1 at 2021-10-17 15:27:26 +0300
  [1m[35m (0.0ms)[0m  [1m[34mSELECT sqlite_version(*)[0m
  [1m[36mTRANSACTION (0.1ms)[0m  [1m[36mbegin transaction[0m
------------------------------------------------
StaticPagesControllerTest: test_should_get_about
------------------------------------------------
  [1m[36mTRANSACTION (0.0ms)[0m  [1m[31mrollback transaction[0m
Processing by StaticPagesController#home as HTML
Started GET "/" for 127.0.0.1 at 2021-10-17 15:27:26 +0300
Processing by StaticPagesController#home as HTML
  Rendering layout layouts/application.html.erb
  Rendering static_pages/home.html.erb within layouts/application
  Rendering layout layouts/application.html.erb
  Rendering static_pages/home.html.erb within layouts/application
  Rendered static_pages/home.html.erb within layouts/application (Duration: 0.1ms | Allocations: 72)
  Rendered static_pages/home.html.erb within layouts/application (Duration: 1.7ms | Allocations: 626)
[Webpacker] Everything's up-to-date. Nothing to do
[Webpacker] Everything's up-to-date. Nothing to do
  Rendered layouts/_shim.html.erb (Duration: 0.5ms | Allocations: 151)
  Rendered layouts/_shim.html.erb (Duration: 0.0ms | Allocations: 20)
  Rendered layouts/_header.html.erb (Duration: 0.9ms | Allocations: 339)
  Rendered layouts/_header.html.erb (Duration: 0.7ms | Allocations: 335)
  Rendered layouts/_footer.html.erb (Duration: 0.6ms | Allocations: 208)
  Rendered layouts/_header.html.erb (Duration: 0.1ms | Allocations: 61)
  Rendered layout layouts/application.html.erb (Duration: 22.5ms | Allocations: 4756)
Completed 200 OK in 38ms (Views: 27.6ms | ActiveRecord: 0.0ms | Allocations: 7694)
  [1m[36mTRANSACTION (0.1ms)[0m  [1m[31mrollback transaction[0m
  Rendered layouts/_footer.html.erb (Duration: 0.6ms | Allocations: 239)
  Rendered layouts/_header.html.erb (Duration: 0.2ms | Allocations: 75)
  Rendered layout layouts/application.html.erb (Duration: 28.4ms | Allocations: 7302)
Completed 200 OK in 51ms (Views: 38.3ms | ActiveRecord: 0.0ms | Allocations: 11819)
  [1m[36mTRANSACTION (0.1ms)[0m  [1m[31mrollback transaction[0m
  [1m[35m (0.6ms)[0m  [1m[34mSELECT sqlite_version(*)[0m
  [1m[35m (0.1ms)[0m  [1m[34mSELECT sqlite_version(*)[0m
  [1m[35m (0.1ms)[0m  [1m[34mSELECT sqlite_version(*)[0m
  [1m[36mTRANSACTION (0.1ms)[0m  [1m[36mbegin transaction[0m
--------------------------------------------------
StaticPagesControllerTest: test_should_get_contact
--------------------------------------------------
  [1m[35m (0.0ms)[0m  [1m[34mSELECT sqlite_version(*)[0m
  [1m[36mTRANSACTION (0.1ms)[0m  [1m[36mbegin transaction[0m
-----------------------------------------------
StaticPagesControllerTest: test_should_get_help
-----------------------------------------------
  [1m[35m (0.1ms)[0m  [1m[34mSELECT sqlite_version(*)[0m
  [1m[36mTRANSACTION (0.1ms)[0m  [1m[36mbegin transaction[0m
------------------------------------------------
StaticPagesControllerTest: test_should_get_about
------------------------------------------------
  [1m[36mTRANSACTION (0.0ms)[0m  [1m[31mrollback transaction[0m
  [1m[36mTRANSACTION (0.0ms)[0m  [1m[31mrollback transaction[0m
  [1m[35m (0.0ms)[0m  [1m[34mSELECT sqlite_version(*)[0m
  [1m[36mTRANSACTION (0.3ms)[0m  [1m[36mbegin transaction[0m
-----------------------------------------------
StaticPagesControllerTest: test_should_get_home
-----------------------------------------------
Started GET "/about" for 127.0.0.1 at 2021-10-17 15:51:13 +0300
  [1m[36mTRANSACTION (0.1ms)[0m  [1m[36mbegin transaction[0m
Processing by StaticPagesController#about as HTML
---------------------------------
SiteLayoutTest: test_layout_links
---------------------------------
Started GET "/" for 127.0.0.1 at 2021-10-17 15:51:13 +0300
Processing by StaticPagesController#home as HTML
  Rendering layout layouts/application.html.erb
  Rendering static_pages/about.html.erb within layouts/application
Started GET "/" for 127.0.0.1 at 2021-10-17 15:51:13 +0300
Processing by StaticPagesController#home as HTML
  Rendering layout layouts/application.html.erb
  Rendering static_pages/home.html.erb within layouts/application
  Rendered static_pages/about.html.erb within layouts/application (Duration: 2.3ms | Allocations: 920)
  Rendering layout layouts/application.html.erb
  Rendering static_pages/home.html.erb within layouts/application
  Rendered static_pages/home.html.erb within layouts/application (Duration: 0.2ms | Allocations: 75)
  Rendered static_pages/home.html.erb within layouts/application (Duration: 1.2ms | Allocations: 355)
[Webpacker] Everything's up-to-date. Nothing to do
[Webpacker] Everything's up-to-date. Nothing to do
[Webpacker] Everything's up-to-date. Nothing to do
  Rendered layouts/_shim.html.erb (Duration: 0.7ms | Allocations: 119)
  Rendered layouts/_shim.html.erb (Duration: 0.1ms | Allocations: 27)
  Rendered layouts/_shim.html.erb (Duration: 0.1ms | Allocations: 27)
  Rendered layouts/_header.html.erb (Duration: 8.7ms | Allocations: 396)
  Rendered layouts/_header.html.erb (Duration: 0.1ms | Allocations: 77)
  Rendered layouts/_header.html.erb (Duration: 8.8ms | Allocations: 514)
  Rendered layouts/_footer.html.erb (Duration: 1.6ms | Allocations: 297)
  Rendered layouts/_header.html.erb (Duration: 0.1ms | Allocations: 68)
  Rendered layout layouts/application.html.erb (Duration: 89.9ms | Allocations: 7733)
Completed 200 OK in 112ms (Views: 100.2ms | ActiveRecord: 0.0ms | Allocations: 12561)
  [1m[36mTRANSACTION (0.1ms)[0m  [1m[31mrollback transaction[0m
  Rendered layouts/_footer.html.erb (Duration: 1.6ms | Allocations: 333)
  Rendered layouts/_header.html.erb (Duration: 0.2ms | Allocations: 87)
  Rendered layout layouts/application.html.erb (Duration: 90.8ms | Allocations: 7644)
Completed 200 OK in 92ms (Views: 91.4ms | ActiveRecord: 0.0ms | Allocations: 8120)
  [1m[36mTRANSACTION (0.1ms)[0m  [1m[31mrollback transaction[0m
  Rendered layouts/_footer.html.erb (Duration: 1.4ms | Allocations: 321)
  Rendered layouts/_header.html.erb (Duration: 0.2ms | Allocations: 57)
  Rendered layout layouts/application.html.erb (Duration: 93.6ms | Allocations: 8866)
Completed 200 OK in 101ms (Views: 98.7ms | ActiveRecord: 0.0ms | Allocations: 11348)
  [1m[36mTRANSACTION (0.0ms)[0m  [1m[31mrollback transaction[0m
  [1m[35m (0.7ms)[0m  [1m[34mSELECT sqlite_version(*)[0m
  [1m[35m (0.0ms)[0m  [1m[34mSELECT sqlite_version(*)[0m
  [1m[35m (0.1ms)[0m  [1m[34mSELECT sqlite_version(*)[0m
  [1m[36mTRANSACTION (0.0ms)[0m  [1m[36mbegin transaction[0m
-----------------------------------------------
StaticPagesControllerTest: test_should_get_home
-----------------------------------------------
  [1m[35m (0.1ms)[0m  [1m[34mSELECT sqlite_version(*)[0m
  [1m[36mTRANSACTION (0.1ms)[0m  [1m[36mbegin transaction[0m
-----------------------------------------------
StaticPagesControllerTest: test_should_get_help
-----------------------------------------------
  [1m[35m (0.0ms)[0m  [1m[34mSELECT sqlite_version(*)[0m
  [1m[36mTRANSACTION (0.1ms)[0m  [1m[36mbegin transaction[0m
--------------------------------------------------
StaticPagesControllerTest: test_should_get_contact
--------------------------------------------------
  [1m[35m (0.1ms)[0m  [1m[34mSELECT sqlite_version(*)[0m
  [1m[36mTRANSACTION (0.1ms)[0m  [1m[36mbegin transaction[0m
------------------------------------------------
StaticPagesControllerTest: test_should_get_about
------------------------------------------------
Started GET "/" for 127.0.0.1 at 2021-10-17 15:54:30 +0300
Started GET "/help" for 127.0.0.1 at 2021-10-17 15:54:30 +0300
Processing by StaticPagesController#help as HTML
Processing by StaticPagesController#home as HTML
Started GET "/contact" for 127.0.0.1 at 2021-10-17 15:54:30 +0300
Processing by StaticPagesController#contact as HTML
Started GET "/about" for 127.0.0.1 at 2021-10-17 15:54:30 +0300
Processing by StaticPagesController#about as HTML
  Rendering layout layouts/application.html.erb
  Rendering static_pages/help.html.erb within layouts/application
  Rendering layout layouts/application.html.erb
  Rendering static_pages/contact.html.erb within layouts/application
  Rendering layout layouts/application.html.erb
  Rendering static_pages/about.html.erb within layouts/application
  Rendered static_pages/contact.html.erb within layouts/application (Duration: 0.8ms | Allocations: 153)
  Rendered static_pages/about.html.erb within layouts/application (Duration: 1.2ms | Allocations: 261)
  Rendering layout layouts/application.html.erb
  Rendering static_pages/home.html.erb within layouts/application
  Rendered static_pages/help.html.erb within layouts/application (Duration: 1.9ms | Allocations: 739)
  Rendered static_pages/home.html.erb within layouts/application (Duration: 2.1ms | Allocations: 565)
[Webpacker] Everything's up-to-date. Nothing to do
[Webpacker] Everything's up-to-date. Nothing to do
[Webpacker] Everything's up-to-date. Nothing to do
[Webpacker] Everything's up-to-date. Nothing to do
  Rendered layouts/_shim.html.erb (Duration: 0.9ms | Allocations: 380)
  Rendered layouts/_shim.html.erb (Duration: 0.7ms | Allocations: 302)
  Rendered layouts/_shim.html.erb (Duration: 0.7ms | Allocations: 310)
  Rendered layouts/_shim.html.erb (Duration: 0.5ms | Allocations: 235)
  Rendered layouts/_header.html.erb (Duration: 1.0ms | Allocations: 458)
  Rendered layouts/_header.html.erb (Duration: 0.1ms | Allocations: 84)
  Rendered layouts/_header.html.erb (Duration: 0.3ms | Allocations: 84)
  Rendered layouts/_header.html.erb (Duration: 1.3ms | Allocations: 659)
  Rendered layouts/_footer.html.erb (Duration: 1.0ms | Allocations: 406)
  Rendered layouts/_header.html.erb (Duration: 0.1ms | Allocations: 75)
  Rendered layout layouts/application.html.erb (Duration: 33.3ms | Allocations: 7808)
Completed 200 OK in 37ms (Views: 34.6ms | ActiveRecord: 0.0ms | Allocations: 8937)
  [1m[36mTRANSACTION (0.1ms)[0m  [1m[31mrollback transaction[0m
  [1m[36mTRANSACTION (0.0ms)[0m  [1m[36mbegin transaction[0m
---------------------------------
SiteLayoutTest: test_layout_links
---------------------------------
  Rendered layouts/_footer.html.erb (Duration: 1.2ms | Allocations: 614)
  Rendered layouts/_header.html.erb (Duration: 0.2ms | Allocations: 100)
  Rendered layout layouts/application.html.erb (Duration: 34.2ms | Allocations: 8587)
Completed 200 OK in 102ms (Views: 66.6ms | ActiveRecord: 0.0ms | Allocations: 15128)
  [1m[36mTRANSACTION (0.0ms)[0m  [1m[31mrollback transaction[0m
  Rendered layouts/_footer.html.erb (Duration: 0.1ms | Allocations: 69)
  Rendered layouts/_header.html.erb (Duration: 0.2ms | Allocations: 72)
  Rendered layout layouts/application.html.erb (Duration: 43.3ms | Allocations: 11651)
Completed 200 OK in 122ms (Views: 90.4ms | ActiveRecord: 0.0ms | Allocations: 17424)
  [1m[36mTRANSACTION (0.0ms)[0m  [1m[31mrollback transaction[0m
Started GET "/" for 127.0.0.1 at 2021-10-17 15:54:30 +0300
Processing by StaticPagesController#home as HTML
  Rendering layout layouts/application.html.erb
  Rendering static_pages/home.html.erb within layouts/application
  Rendered static_pages/home.html.erb within layouts/application (Duration: 0.2ms | Allocations: 83)
  Rendered layouts/_footer.html.erb (Duration: 1.0ms | Allocations: 455)
  Rendered layouts/_header.html.erb (Duration: 0.1ms | Allocations: 61)
  Rendered layout layouts/application.html.erb (Duration: 46.0ms | Allocations: 13035)
Completed 200 OK in 52ms (Views: 49.0ms | ActiveRecord: 0.0ms | Allocations: 14810)
  [1m[36mTRANSACTION (0.0ms)[0m  [1m[31mrollback transaction[0m
[Webpacker] Everything's up-to-date. Nothing to do
  Rendered layouts/_shim.html.erb (Duration: 0.1ms | Allocations: 15)
  Rendered layouts/_header.html.erb (Duration: 0.1ms | Allocations: 69)
  Rendered layouts/_footer.html.erb (Duration: 0.1ms | Allocations: 48)
  Rendered layouts/_header.html.erb (Duration: 0.1ms | Allocations: 54)
  Rendered layout layouts/application.html.erb (Duration: 7.6ms | Allocations: 2053)
Completed 200 OK in 8ms (Views: 8.0ms | ActiveRecord: 0.0ms | Allocations: 2500)
  [1m[36mTRANSACTION (0.1ms)[0m  [1m[31mrollback transaction[0m
  [1m[35m (0.9ms)[0m  [1m[34mSELECT sqlite_version(*)[0m
  [1m[35m (0.1ms)[0m  [1m[34mSELECT sqlite_version(*)[0m
  [1m[35m (0.1ms)[0m  [1m[34mSELECT sqlite_version(*)[0m
  [1m[36mTRANSACTION (0.0ms)[0m  [1m[36mbegin transaction[0m
--------------------------------------------------
StaticPagesControllerTest: test_should_get_contact
--------------------------------------------------
  [1m[35m (0.0ms)[0m  [1m[34mSELECT sqlite_version(*)[0m
  [1m[36mTRANSACTION (0.1ms)[0m  [1m[36mbegin transaction[0m
------------------------------------------------
StaticPagesControllerTest: test_should_get_about
------------------------------------------------
  [1m[35m (0.0ms)[0m  [1m[34mSELECT sqlite_version(*)[0m
  [1m[36mTRANSACTION (0.1ms)[0m  [1m[36mbegin transaction[0m
-----------------------------------------------
StaticPagesControllerTest: test_should_get_home
-----------------------------------------------
  [1m[35m (0.2ms)[0m  [1m[34mSELECT sqlite_version(*)[0m
  [1m[36mTRANSACTION (0.1ms)[0m  [1m[36mbegin transaction[0m
-----------------------------------------------
StaticPagesControllerTest: test_should_get_help
-----------------------------------------------
Started GET "/contact" for 127.0.0.1 at 2021-10-17 17:28:58 +0300
Started GET "/about" for 127.0.0.1 at 2021-10-17 17:28:58 +0300
Started GET "/" for 127.0.0.1 at 2021-10-17 17:28:58 +0300
Started GET "/help" for 127.0.0.1 at 2021-10-17 17:28:58 +0300
Processing by StaticPagesController#contact as HTML
Processing by StaticPagesController#help as HTML
Processing by StaticPagesController#home as HTML
Processing by StaticPagesController#about as HTML
  Rendering layout layouts/application.html.erb
  Rendering static_pages/home.html.erb within layouts/application
  Rendering layout layouts/application.html.erb
  Rendering static_pages/help.html.erb within layouts/application
  Rendering layout layouts/application.html.erb
  Rendering static_pages/contact.html.erb within layouts/application
  Rendered static_pages/home.html.erb within layouts/application (Duration: 6.3ms | Allocations: 642)
  Rendered static_pages/help.html.erb within layouts/application (Duration: 4.5ms | Allocations: 143)
  Rendering layout layouts/application.html.erb
  Rendering static_pages/about.html.erb within layouts/application
  Rendered static_pages/contact.html.erb within layouts/application (Duration: 0.8ms | Allocations: 134)
  Rendered static_pages/about.html.erb within layouts/application (Duration: 10.1ms | Allocations: 427)
[Webpacker] Everything's up-to-date. Nothing to do
[Webpacker] Everything's up-to-date. Nothing to do
[Webpacker] Everything's up-to-date. Nothing to do
[Webpacker] Everything's up-to-date. Nothing to do
  Rendered layouts/_shim.html.erb (Duration: 1.5ms | Allocations: 399)
  Rendered layouts/_shim.html.erb (Duration: 1.5ms | Allocations: 291)
  Rendered layouts/_shim.html.erb (Duration: 0.8ms | Allocations: 230)
  Rendered layouts/_shim.html.erb (Duration: 1.0ms | Allocations: 304)
  Rendered layouts/_header.html.erb (Duration: 1.6ms | Allocations: 472)
  Rendered layouts/_header.html.erb (Duration: 2.3ms | Allocations: 640)
  Rendered layouts/_header.html.erb (Duration: 1.5ms | Allocations: 487)
  Rendered layouts/_header.html.erb (Duration: 1.7ms | Allocations: 529)
  Rendered layouts/_footer.html.erb (Duration: 1.3ms | Allocations: 428)
  Rendered layouts/_header.html.erb (Duration: 0.1ms | Allocations: 75)
  Rendered layout layouts/application.html.erb (Duration: 107.0ms | Allocations: 8164)
Completed 200 OK in 129ms (Views: 119.3ms | ActiveRecord: 0.0ms | Allocations: 12255)
  [1m[36mTRANSACTION (0.1ms)[0m  [1m[31mrollback transaction[0m
  [1m[36mTRANSACTION (0.1ms)[0m  [1m[36mbegin transaction[0m
----------------------------------------
UsersControllerTest: test_should_get_new
----------------------------------------
  Rendered layouts/_footer.html.erb (Duration: 1.3ms | Allocations: 532)
  Rendered layouts/_header.html.erb (Duration: 0.2ms | Allocations: 101)
  Rendered layout layouts/application.html.erb (Duration: 109.3ms | Allocations: 9797)
Completed 200 OK in 147ms (Views: 132.6ms | ActiveRecord: 0.0ms | Allocations: 16143)
  [1m[36mTRANSACTION (0.1ms)[0m  [1m[31mrollback transaction[0m
  [1m[36mTRANSACTION (0.0ms)[0m  [1m[36mbegin transaction[0m
---------------------------------
SiteLayoutTest: test_layout_links
---------------------------------
  Rendered layouts/_footer.html.erb (Duration: 1.1ms | Allocations: 373)
  Rendered layouts/_header.html.erb (Duration: 0.2ms | Allocations: 81)
  Rendered layout layouts/application.html.erb (Duration: 121.5ms | Allocations: 11655)
Completed 200 OK in 150ms (Views: 134.3ms | ActiveRecord: 0.0ms | Allocations: 16438)
  [1m[36mTRANSACTION (0.0ms)[0m  [1m[31mrollback transaction[0m
Started GET "/users/new" for 127.0.0.1 at 2021-10-17 17:28:58 +0300
Started GET "/" for 127.0.0.1 at 2021-10-17 17:28:58 +0300
Processing by StaticPagesController#home as HTML
  Rendering layout layouts/application.html.erb
  Rendering static_pages/home.html.erb within layouts/application
  Rendered static_pages/home.html.erb within layouts/application (Duration: 0.2ms | Allocations: 86)
  Rendered layouts/_footer.html.erb (Duration: 1.3ms | Allocations: 425)
  Rendered layouts/_header.html.erb (Duration: 0.1ms | Allocations: 68)
  Rendered layout layouts/application.html.erb (Duration: 104.0ms | Allocations: 11839)
Completed 200 OK in 150ms (Views: 136.8ms | ActiveRecord: 0.0ms | Allocations: 17599)
  [1m[36mTRANSACTION (0.1ms)[0m  [1m[31mrollback transaction[0m
Processing by UsersController#new as HTML
  Rendering layout layouts/application.html.erb
  Rendering users/new.html.erb within layouts/application
  Rendered users/new.html.erb within layouts/application (Duration: 0.5ms | Allocations: 108)
[Webpacker] Everything's up-to-date. Nothing to do
  Rendered layouts/_shim.html.erb (Duration: 0.1ms | Allocations: 21)
  Rendered layouts/_header.html.erb (Duration: 0.2ms | Allocations: 83)
  Rendered layouts/_footer.html.erb (Duration: 0.1ms | Allocations: 55)
  Rendered layouts/_header.html.erb (Duration: 0.1ms | Allocations: 61)
  Rendered layout layouts/application.html.erb (Duration: 23.2ms | Allocations: 4626)
Completed 200 OK in 24ms (Views: 24.0ms | ActiveRecord: 0.0ms | Allocations: 5097)
  [1m[36mTRANSACTION (0.1ms)[0m  [1m[31mrollback transaction[0m
[Webpacker] Everything's up-to-date. Nothing to do
  Rendered layouts/_shim.html.erb (Duration: 0.1ms | Allocations: 18)
  Rendered layouts/_header.html.erb (Duration: 0.1ms | Allocations: 81)
  Rendered layouts/_footer.html.erb (Duration: 0.1ms | Allocations: 53)
  Rendered layouts/_header.html.erb (Duration: 0.1ms | Allocations: 54)
  Rendered layout layouts/application.html.erb (Duration: 15.9ms | Allocations: 4201)
Completed 200 OK in 22ms (Views: 19.8ms | ActiveRecord: 0.0ms | Allocations: 5318)
  [1m[36mTRANSACTION (0.0ms)[0m  [1m[31mrollback transaction[0m
  [1m[35m (0.6ms)[0m  [1m[34mSELECT sqlite_version(*)[0m
  [1m[35m (0.0ms)[0m  [1m[34mSELECT sqlite_version(*)[0m
  [1m[35m (0.1ms)[0m  [1m[34mSELECT sqlite_version(*)[0m
  [1m[36mTRANSACTION (0.0ms)[0m  [1m[36mbegin transaction[0m
------------------------------------------------
StaticPagesControllerTest: test_should_get_about
------------------------------------------------
  [1m[35m (0.1ms)[0m  [1m[34mSELECT sqlite_version(*)[0m
  [1m[36mTRANSACTION (0.1ms)[0m  [1m[36mbegin transaction[0m
-----------------------------------------------
StaticPagesControllerTest: test_should_get_home
-----------------------------------------------
  [1m[35m (0.1ms)[0m  [1m[34mSELECT sqlite_version(*)[0m
  [1m[36mTRANSACTION (0.1ms)[0m  [1m[36mbegin transaction[0m
--------------------------------------------------
StaticPagesControllerTest: test_should_get_contact
--------------------------------------------------
  [1m[35m (0.1ms)[0m  [1m[34mSELECT sqlite_version(*)[0m
  [1m[36mTRANSACTION (0.1ms)[0m  [1m[36mbegin transaction[0m
-----------------------------------------------
StaticPagesControllerTest: test_should_get_help
-----------------------------------------------
Started GET "/about" for 127.0.0.1 at 2021-10-17 17:31:41 +0300
Started GET "/" for 127.0.0.1 at 2021-10-17 17:31:41 +0300
Processing by StaticPagesController#about as HTML
Started GET "/contact" for 127.0.0.1 at 2021-10-17 17:31:41 +0300
Processing by StaticPagesController#contact as HTML
Processing by StaticPagesController#home as HTML
Started GET "/help" for 127.0.0.1 at 2021-10-17 17:31:41 +0300
Processing by StaticPagesController#help as HTML
  Rendering layout layouts/application.html.erb
  Rendering static_pages/about.html.erb within layouts/application
  Rendering layout layouts/application.html.erb
  Rendering static_pages/help.html.erb within layouts/application
  Rendering layout layouts/application.html.erb
  Rendering static_pages/home.html.erb within layouts/application
  Rendering layout layouts/application.html.erb
  Rendering static_pages/contact.html.erb within layouts/application
  Rendered static_pages/home.html.erb within layouts/application (Duration: 1.9ms | Allocations: 381)
  Rendered static_pages/contact.html.erb within layouts/application (Duration: 2.2ms | Allocations: 483)
  Rendered static_pages/help.html.erb within layouts/application (Duration: 1.5ms | Allocations: 143)
  Rendered static_pages/about.html.erb within layouts/application (Duration: 2.3ms | Allocations: 419)
[Webpacker] Everything's up-to-date. Nothing to do
[Webpacker] Everything's up-to-date. Nothing to do
[Webpacker] Everything's up-to-date. Nothing to do
[Webpacker] Everything's up-to-date. Nothing to do
  Rendered layouts/_shim.html.erb (Duration: 0.1ms | Allocations: 34)
  Rendered layouts/_shim.html.erb (Duration: 2.4ms | Allocations: 336)
  Rendered layouts/_shim.html.erb (Duration: 0.1ms | Allocations: 34)
  Rendered layouts/_shim.html.erb (Duration: 0.1ms | Allocations: 34)
  Rendered layouts/_header.html.erb (Duration: 2.3ms | Allocations: 439)
  Rendered layouts/_header.html.erb (Duration: 0.3ms | Allocations: 84)
  Rendered layouts/_header.html.erb (Duration: 2.7ms | Allocations: 569)
  Rendered layouts/_header.html.erb (Duration: 3.1ms | Allocations: 626)
  Rendered layouts/_footer.html.erb (Duration: 2.7ms | Allocations: 406)
  Rendered layouts/_header.html.erb (Duration: 0.2ms | Allocations: 75)
  Rendered layout layouts/application.html.erb (Duration: 83.8ms | Allocations: 7931)
Completed 200 OK in 94ms (Views: 87.2ms | ActiveRecord: 0.0ms | Allocations: 9165)
  [1m[36mTRANSACTION (0.1ms)[0m  [1m[31mrollback transaction[0m
  [1m[36mTRANSACTION (0.1ms)[0m  [1m[36mbegin transaction[0m
----------------------------------------
UsersControllerTest: test_should_get_new
----------------------------------------
  Rendered layouts/_footer.html.erb (Duration: 2.3ms | Allocations: 455)
  Rendered layouts/_header.html.erb (Duration: 0.3ms | Allocations: 101)
  Rendered layout layouts/application.html.erb (Duration: 92.9ms | Allocations: 9844)
Completed 200 OK in 201ms (Views: 114.3ms | ActiveRecord: 0.0ms | Allocations: 14710)
  [1m[36mTRANSACTION (0.1ms)[0m  [1m[31mrollback transaction[0m
  [1m[36mTRANSACTION (0.1ms)[0m  [1m[36mbegin transaction[0m
---------------------------------
SiteLayoutTest: test_layout_links
---------------------------------
  Rendered layouts/_footer.html.erb (Duration: 2.4ms | Allocations: 498)
  Rendered layouts/_header.html.erb (Duration: 0.3ms | Allocations: 81)
  Rendered layout layouts/application.html.erb (Duration: 108.3ms | Allocations: 11877)
Completed 200 OK in 271ms (Views: 182.5ms | ActiveRecord: 0.0ms | Allocations: 18176)
  [1m[36mTRANSACTION (0.1ms)[0m  [1m[31mrollback transaction[0m
  Rendered layouts/_footer.html.erb (Duration: 0.2ms | Allocations: 69)
  Rendered layouts/_header.html.erb (Duration: 0.3ms | Allocations: 71)
  Rendered layout layouts/application.html.erb (Duration: 112.0ms | Allocations: 12145)
Completed 200 OK in 216ms (Views: 128.7ms | ActiveRecord: 0.0ms | Allocations: 16556)
  [1m[36mTRANSACTION (0.1ms)[0m  [1m[31mrollback transaction[0m
Started GET "/users/new" for 127.0.0.1 at 2021-10-17 17:31:41 +0300
Processing by UsersController#new as HTML
Started GET "/" for 127.0.0.1 at 2021-10-17 17:31:41 +0300
Processing by StaticPagesController#home as HTML
  Rendering layout layouts/application.html.erb
  Rendering static_pages/home.html.erb within layouts/application
  Rendered static_pages/home.html.erb within layouts/application (Duration: 0.8ms | Allocations: 101)
  Rendering layout layouts/application.html.erb
  Rendering users/new.html.erb within layouts/application
  Rendered users/new.html.erb within layouts/application (Duration: 1.1ms | Allocations: 101)
[Webpacker] Everything's up-to-date. Nothing to do
  Rendered layouts/_shim.html.erb (Duration: 0.1ms | Allocations: 21)
  Rendered layouts/_header.html.erb (Duration: 0.7ms | Allocations: 81)
  Rendered layouts/_footer.html.erb (Duration: 0.2ms | Allocations: 55)
  Rendered layouts/_header.html.erb (Duration: 0.2ms | Allocations: 61)
  Rendered layout layouts/application.html.erb (Duration: 31.5ms | Allocations: 2836)
Completed 200 OK in 34ms (Views: 33.0ms | ActiveRecord: 0.0ms | Allocations: 3338)
  [1m[36mTRANSACTION (0.1ms)[0m  [1m[31mrollback transaction[0m
[Webpacker] Everything's up-to-date. Nothing to do
  Rendered layouts/_shim.html.erb (Duration: 0.1ms | Allocations: 18)
  Rendered layouts/_header.html.erb (Duration: 0.3ms | Allocations: 81)
  Rendered layouts/_footer.html.erb (Duration: 0.2ms | Allocations: 53)
  Rendered layouts/_header.html.erb (Duration: 0.2ms | Allocations: 54)
  Rendered layout layouts/application.html.erb (Duration: 32.8ms | Allocations: 4169)
Completed 200 OK in 47ms (Views: 42.0ms | ActiveRecord: 0.0ms | Allocations: 6345)
  [1m[36mTRANSACTION (0.1ms)[0m  [1m[31mrollback transaction[0m
  [1m[35m (0.6ms)[0m  [1m[34mSELECT sqlite_version(*)[0m
  [1m[35m (0.1ms)[0m  [1m[34mSELECT sqlite_version(*)[0m
  [1m[35m (0.2ms)[0m  [1m[34mSELECT sqlite_version(*)[0m
  [1m[36mTRANSACTION (0.1ms)[0m  [1m[36mbegin transaction[0m
---------------------------------------------
SignUpTest::SiteLayoutTest: test_layout_links
---------------------------------------------
  [1m[35m (0.1ms)[0m  [1m[34mSELECT sqlite_version(*)[0m
  [1m[36mTRANSACTION (0.1ms)[0m  [1m[36mbegin transaction[0m
---------------------------------
SiteLayoutTest: test_layout_links
---------------------------------
Started GET "/" for 127.0.0.1 at 2021-10-17 17:36:29 +0300
Started GET "/" for 127.0.0.1 at 2021-10-17 17:36:29 +0300
Processing by StaticPagesController#home as HTML
Processing by StaticPagesController#home as HTML
  Rendering layout layouts/application.html.erb
  Rendering static_pages/home.html.erb within layouts/application
  Rendering layout layouts/application.html.erb
  Rendering static_pages/home.html.erb within layouts/application
  Rendered static_pages/home.html.erb within layouts/application (Duration: 0.2ms | Allocations: 72)
  Rendered static_pages/home.html.erb within layouts/application (Duration: 17.2ms | Allocations: 626)
[Webpacker] Everything's up-to-date. Nothing to do
[Webpacker] Everything's up-to-date. Nothing to do
  Rendered layouts/_shim.html.erb (Duration: 1.0ms | Allocations: 183)
  Rendered layouts/_shim.html.erb (Duration: 0.6ms | Allocations: 128)
  Rendered layouts/_header.html.erb (Duration: 1.2ms | Allocations: 348)
  Rendered layouts/_header.html.erb (Duration: 1.1ms | Allocations: 353)
  Rendered layouts/_footer.html.erb (Duration: 1.1ms | Allocations: 225)
  Rendered layouts/_header.html.erb (Duration: 0.2ms | Allocations: 70)
  Rendered layout layouts/application.html.erb (Duration: 70.6ms | Allocations: 4783)
Completed 200 OK in 140ms (Views: 94.3ms | ActiveRecord: 0.0ms | Allocations: 8198)
  [1m[36mTRANSACTION (0.1ms)[0m  [1m[31mrollback transaction[0m
  Rendered layouts/_footer.html.erb (Duration: 0.2ms | Allocations: 55)
  Rendered layouts/_header.html.erb (Duration: 0.3ms | Allocations: 84)
  Rendered layout layouts/application.html.erb (Duration: 86.3ms | Allocations: 7484)
Completed 200 OK in 152ms (Views: 131.8ms | ActiveRecord: 0.0ms | Allocations: 11651)
  [1m[36mTRANSACTION (0.1ms)[0m  [1m[31mrollback transaction[0m
  [1m[35m (0.8ms)[0m  [1m[34mSELECT sqlite_version(*)[0m
  [1m[35m (0.1ms)[0m  [1m[34mSELECT sqlite_version(*)[0m
  [1m[35m (0.1ms)[0m  [1m[34mSELECT sqlite_version(*)[0m
  [1m[36mTRANSACTION (0.1ms)[0m  [1m[36mbegin transaction[0m
---------------------------------------------
SignUpTest::SiteLayoutTest: test_layout_links
---------------------------------------------
  [1m[35m (0.1ms)[0m  [1m[34mSELECT sqlite_version(*)[0m
  [1m[36mTRANSACTION (0.1ms)[0m  [1m[36mbegin transaction[0m
--------------------------------------------------
StaticPagesControllerTest: test_should_get_contact
--------------------------------------------------
  [1m[35m (0.1ms)[0m  [1m[34mSELECT sqlite_version(*)[0m
  [1m[36mTRANSACTION (0.1ms)[0m  [1m[36mbegin transaction[0m
-----------------------------------------------
StaticPagesControllerTest: test_should_get_help
-----------------------------------------------
  [1m[35m (0.1ms)[0m  [1m[34mSELECT sqlite_version(*)[0m
  [1m[36mTRANSACTION (0.1ms)[0m  [1m[36mbegin transaction[0m
-----------------------------------------------
StaticPagesControllerTest: test_should_get_home
-----------------------------------------------
Started GET "/" for 127.0.0.1 at 2021-10-17 17:37:04 +0300
Started GET "/help" for 127.0.0.1 at 2021-10-17 17:37:04 +0300
Started GET "/contact" for 127.0.0.1 at 2021-10-17 17:37:04 +0300
Processing by StaticPagesController#contact as HTML
Processing by StaticPagesController#home as HTML
Processing by StaticPagesController#help as HTML
Started GET "/" for 127.0.0.1 at 2021-10-17 17:37:04 +0300
Processing by StaticPagesController#home as HTML
  Rendering layout layouts/application.html.erb
  Rendering static_pages/contact.html.erb within layouts/application
  Rendering layout layouts/application.html.erb
  Rendering static_pages/help.html.erb within layouts/application
  Rendering layout layouts/application.html.erb
  Rendering static_pages/home.html.erb within layouts/application
  Rendered static_pages/help.html.erb within layouts/application (Duration: 1.6ms | Allocations: 156)
  Rendered static_pages/home.html.erb within layouts/application (Duration: 13.3ms | Allocations: 486)
  Rendered static_pages/contact.html.erb within layouts/application (Duration: 8.2ms | Allocations: 414)
  Rendering layout layouts/application.html.erb
  Rendering static_pages/home.html.erb within layouts/application
  Rendered static_pages/home.html.erb within layouts/application (Duration: 11.8ms | Allocations: 84)
[Webpacker] Everything's up-to-date. Nothing to do
[Webpacker] Everything's up-to-date. Nothing to do
[Webpacker] Everything's up-to-date. Nothing to do
[Webpacker] Everything's up-to-date. Nothing to do
  Rendered layouts/_shim.html.erb (Duration: 0.1ms | Allocations: 34)
  Rendered layouts/_shim.html.erb (Duration: 0.1ms | Allocations: 34)
  Rendered layouts/_shim.html.erb (Duration: 2.5ms | Allocations: 382)
  Rendered layouts/_shim.html.erb (Duration: 0.1ms | Allocations: 34)
  Rendered layouts/_header.html.erb (Duration: 2.9ms | Allocations: 448)
  Rendered layouts/_header.html.erb (Duration: 0.3ms | Allocations: 93)
  Rendered layouts/_header.html.erb (Duration: 3.3ms | Allocations: 596)
  Rendered layouts/_header.html.erb (Duration: 3.4ms | Allocations: 662)
  Rendered layouts/_footer.html.erb (Duration: 2.6ms | Allocations: 407)
  Rendered layouts/_header.html.erb (Duration: 0.3ms | Allocations: 84)
  Rendered layout layouts/application.html.erb (Duration: 179.1ms | Allocations: 7938)
Completed 200 OK in 229ms (Views: 209.3ms | ActiveRecord: 0.0ms | Allocations: 12528)
  [1m[36mTRANSACTION (0.1ms)[0m  [1m[31mrollback transaction[0m
  [1m[36mTRANSACTION (0.1ms)[0m  [1m[36mbegin transaction[0m
------------------------------------------------
StaticPagesControllerTest: test_should_get_about
------------------------------------------------
  Rendered layouts/_footer.html.erb (Duration: 2.5ms | Allocations: 499)
  Rendered layouts/_header.html.erb (Duration: 0.4ms | Allocations: 109)
  Rendered layout layouts/application.html.erb (Duration: 192.5ms | Allocations: 10401)
Completed 200 OK in 257ms (Views: 231.3ms | ActiveRecord: 0.0ms | Allocations: 16307)
  [1m[36mTRANSACTION (0.1ms)[0m  [1m[31mrollback transaction[0m
  [1m[36mTRANSACTION (0.1ms)[0m  [1m[36mbegin transaction[0m
----------------------------------------
UsersControllerTest: test_should_get_new
----------------------------------------
  Rendered layouts/_footer.html.erb (Duration: 2.3ms | Allocations: 456)
  Rendered layouts/_header.html.erb (Duration: 0.3ms | Allocations: 90)
  Rendered layout layouts/application.html.erb (Duration: 149.7ms | Allocations: 9406)
Completed 200 OK in 236ms (Views: 216.3ms | ActiveRecord: 0.0ms | Allocations: 13783)
  [1m[36mTRANSACTION (0.1ms)[0m  [1m[31mrollback transaction[0m
  [1m[36mTRANSACTION (0.5ms)[0m  [1m[36mbegin transaction[0m
---------------------------------
SiteLayoutTest: test_layout_links
---------------------------------
Started GET "/about" for 127.0.0.1 at 2021-10-17 17:37:04 +0300
Processing by StaticPagesController#about as HTML
  Rendered layouts/_footer.html.erb (Duration: 0.2ms | Allocations: 69)
  Rendered layouts/_header.html.erb (Duration: 0.3ms | Allocations: 89)
  Rendered layout layouts/application.html.erb (Duration: 208.5ms | Allocations: 13209)
Completed 200 OK in 277ms (Views: 249.3ms | ActiveRecord: 0.0ms | Allocations: 18783)
  [1m[36mTRANSACTION (0.1ms)[0m  [1m[31mrollback transaction[0m
Started GET "/" for 127.0.0.1 at 2021-10-17 17:37:04 +0300
Processing by StaticPagesController#home as HTML
  Rendering layout layouts/application.html.erb
  Rendering static_pages/home.html.erb within layouts/application
  Rendered static_pages/home.html.erb within layouts/application (Duration: 0.3ms | Allocations: 83)
  Rendering layout layouts/application.html.erb
  Rendering static_pages/about.html.erb within layouts/application
Started GET "/users/new" for 127.0.0.1 at 2021-10-17 17:37:04 +0300
Processing by UsersController#new as HTML
  Rendered static_pages/about.html.erb within layouts/application (Duration: 3.0ms | Allocations: 859)
  Rendering layout layouts/application.html.erb
  Rendering users/new.html.erb within layouts/application
  Rendered users/new.html.erb within layouts/application (Duration: 0.8ms | Allocations: 121)
[Webpacker] Everything's up-to-date. Nothing to do
  Rendered layouts/_shim.html.erb (Duration: 0.1ms | Allocations: 28)
  Rendered layouts/_header.html.erb (Duration: 0.2ms | Allocations: 99)
  Rendered layouts/_footer.html.erb (Duration: 0.1ms | Allocations: 62)
  Rendered layouts/_header.html.erb (Duration: 0.2ms | Allocations: 77)
  Rendered layout layouts/application.html.erb (Duration: 34.0ms | Allocations: 4641)
Completed 200 OK in 36ms (Views: 35.4ms | ActiveRecord: 0.0ms | Allocations: 5063)
  [1m[36mTRANSACTION (0.1ms)[0m  [1m[31mrollback transaction[0m
[Webpacker] Everything's up-to-date. Nothing to do
  Rendered layouts/_shim.html.erb (Duration: 0.1ms | Allocations: 24)
  Rendered layouts/_header.html.erb (Duration: 0.3ms | Allocations: 79)
  Rendered layouts/_footer.html.erb (Duration: 0.1ms | Allocations: 55)
  Rendered layouts/_header.html.erb (Duration: 0.2ms | Allocations: 70)
  Rendered layout layouts/application.html.erb (Duration: 44.4ms | Allocations: 6775)
Completed 200 OK in 59ms (Views: 54.4ms | ActiveRecord: 0.0ms | Allocations: 9535)
  [1m[36mTRANSACTION (0.1ms)[0m  [1m[31mrollback transaction[0m
[Webpacker] Everything's up-to-date. Nothing to do
  Rendered layouts/_shim.html.erb (Duration: 0.1ms | Allocations: 18)
  Rendered layouts/_header.html.erb (Duration: 0.3ms | Allocations: 92)
  Rendered layouts/_footer.html.erb (Duration: 0.1ms | Allocations: 53)
  Rendered layouts/_header.html.erb (Duration: 0.1ms | Allocations: 63)
  Rendered layout layouts/application.html.erb (Duration: 36.0ms | Allocations: 5794)
Completed 200 OK in 47ms (Views: 42.9ms | ActiveRecord: 0.0ms | Allocations: 7299)
  [1m[36mTRANSACTION (0.1ms)[0m  [1m[31mrollback transaction[0m
  [1m[35m (0.9ms)[0m  [1m[34mSELECT sqlite_version(*)[0m
  [1m[35m (0.1ms)[0m  [1m[34mSELECT sqlite_version(*)[0m
  [1m[35m (0.1ms)[0m  [1m[34mSELECT sqlite_version(*)[0m
  [1m[36mTRANSACTION (0.1ms)[0m  [1m[36mbegin transaction[0m
--------------------------------------------------
StaticPagesControllerTest: test_should_get_contact
--------------------------------------------------
  [1m[35m (0.1ms)[0m  [1m[34mSELECT sqlite_version(*)[0m
  [1m[36mTRANSACTION (0.1ms)[0m  [1m[36mbegin transaction[0m
------------------------------------------------
StaticPagesControllerTest: test_should_get_about
------------------------------------------------
  [1m[35m (0.1ms)[0m  [1m[34mSELECT sqlite_version(*)[0m
  [1m[36mTRANSACTION (0.1ms)[0m  [1m[36mbegin transaction[0m
-----------------------------------------------
StaticPagesControllerTest: test_should_get_help
-----------------------------------------------
  [1m[35m (0.1ms)[0m  [1m[34mSELECT sqlite_version(*)[0m
  [1m[36mTRANSACTION (0.1ms)[0m  [1m[36mbegin transaction[0m
-----------------------------------------------
StaticPagesControllerTest: test_should_get_home
-----------------------------------------------
Started GET "/contact" for 127.0.0.1 at 2021-10-17 17:40:16 +0300
Started GET "/help" for 127.0.0.1 at 2021-10-17 17:40:16 +0300
Started GET "/about" for 127.0.0.1 at 2021-10-17 17:40:16 +0300
Processing by StaticPagesController#about as HTML
Started GET "/" for 127.0.0.1 at 2021-10-17 17:40:17 +0300
Processing by StaticPagesController#home as HTML
Processing by StaticPagesController#help as HTML
Processing by StaticPagesController#contact as HTML
  Rendering layout layouts/application.html.erb
  Rendering static_pages/about.html.erb within layouts/application
  Rendering layout layouts/application.html.erb
  Rendering static_pages/help.html.erb within layouts/application
  Rendering layout layouts/application.html.erb
  Rendering static_pages/home.html.erb within layouts/application
  Rendered static_pages/about.html.erb within layouts/application (Duration: 2.4ms | Allocations: 419)
  Rendering layout layouts/application.html.erb
  Rendering static_pages/contact.html.erb within layouts/application
  Rendered static_pages/home.html.erb within layouts/application (Duration: 2.2ms | Allocations: 435)
  Rendered static_pages/help.html.erb within layouts/application (Duration: 1.2ms | Allocations: 143)
  Rendered static_pages/contact.html.erb within layouts/application (Duration: 2.1ms | Allocations: 415)
[Webpacker] Everything's up-to-date. Nothing to do
[Webpacker] Everything's up-to-date. Nothing to do
[Webpacker] Everything's up-to-date. Nothing to do
[Webpacker] Everything's up-to-date. Nothing to do
  Rendered layouts/_shim.html.erb (Duration: 0.1ms | Allocations: 34)
  Rendered layouts/_shim.html.erb (Duration: 1.8ms | Allocations: 340)
  Rendered layouts/_shim.html.erb (Duration: 0.1ms | Allocations: 34)
  Rendered layouts/_shim.html.erb (Duration: 0.1ms | Allocations: 34)
  Rendered layouts/_header.html.erb (Duration: 2.5ms | Allocations: 417)
  Rendered layouts/_header.html.erb (Duration: 4.1ms | Allocations: 611)
  Rendered layouts/_header.html.erb (Duration: 2.2ms | Allocations: 448)
  Rendered layouts/_header.html.erb (Duration: 2.3ms | Allocations: 431)
  Rendered layouts/_footer.html.erb (Duration: 2.7ms | Allocations: 428)
  Rendered layouts/_header.html.erb (Duration: 0.3ms | Allocations: 84)
  Rendered layout layouts/application.html.erb (Duration: 81.9ms | Allocations: 7625)
Completed 200 OK in 117ms (Views: 95.0ms | ActiveRecord: 0.0ms | Allocations: 11933)
  [1m[36mTRANSACTION (0.1ms)[0m  [1m[31mrollback transaction[0m
  [1m[36mTRANSACTION (0.1ms)[0m  [1m[36mbegin transaction[0m
---------------------------------
SiteLayoutTest: test_layout_links
---------------------------------
  Rendered layouts/_footer.html.erb (Duration: 2.5ms | Allocations: 541)
  Rendered layouts/_header.html.erb (Duration: 0.4ms | Allocations: 109)
  Rendered layout layouts/application.html.erb (Duration: 90.8ms | Allocations: 9330)
Completed 200 OK in 117ms (Views: 103.2ms | ActiveRecord: 0.0ms | Allocations: 12286)
  [1m[36mTRANSACTION (0.1ms)[0m  [1m[31mrollback transaction[0m
  [1m[36mTRANSACTION (0.1ms)[0m  [1m[36mbegin transaction[0m
----------------------------------------
UsersControllerTest: test_should_get_new
----------------------------------------
  Rendered layouts/_footer.html.erb (Duration: 2.7ms | Allocations: 425)
  Rendered layouts/_header.html.erb (Duration: 0.3ms | Allocations: 90)
  Rendered layout layouts/application.html.erb (Duration: 108.4ms | Allocations: 11856)
Completed 200 OK in 160ms (Views: 133.0ms | ActiveRecord: 0.0ms | Allocations: 17709)
  [1m[36mTRANSACTION (0.1ms)[0m  [1m[31mrollback transaction[0m
  [1m[36mTRANSACTION (0.1ms)[0m  [1m[36mbegin transaction[0m
---------------------------------------------
SignUpTest::SiteLayoutTest: test_layout_links
---------------------------------------------
Started GET "/users/new" for 127.0.0.1 at 2021-10-17 17:40:17 +0300
Processing by UsersController#new as HTML
  Rendered layouts/_footer.html.erb (Duration: 2.1ms | Allocations: 417)
  Rendered layouts/_header.html.erb (Duration: 0.4ms | Allocations: 110)
  Rendered layout layouts/application.html.erb (Duration: 123.4ms | Allocations: 13912)
Completed 200 OK in 158ms (Views: 135.8ms | ActiveRecord: 0.0ms | Allocations: 18170)
  [1m[36mTRANSACTION (0.1ms)[0m  [1m[31mrollback transaction[0m
Started GET "/" for 127.0.0.1 at 2021-10-17 17:40:17 +0300
Processing by StaticPagesController#home as HTML
  Rendering layout layouts/application.html.erb
  Rendering static_pages/home.html.erb within layouts/application
  Rendered static_pages/home.html.erb within layouts/application (Duration: 0.5ms | Allocations: 126)
  Rendering layout layouts/application.html.erb
  Rendering users/new.html.erb within layouts/application
Started GET "/" for 127.0.0.1 at 2021-10-17 17:40:17 +0300
Processing by StaticPagesController#home as HTML
  Rendering layout layouts/application.html.erb
  Rendering static_pages/home.html.erb within layouts/application
  Rendered static_pages/home.html.erb within layouts/application (Duration: 0.9ms | Allocations: 86)
  Rendered users/new.html.erb within layouts/application (Duration: 1.9ms | Allocations: 345)
[Webpacker] Everything's up-to-date. Nothing to do
  Rendered layouts/_shim.html.erb (Duration: 0.1ms | Allocations: 27)
  Rendered layouts/_header.html.erb (Duration: 0.3ms | Allocations: 77)
  Rendered layouts/_footer.html.erb (Duration: 0.2ms | Allocations: 62)
  Rendered layouts/_header.html.erb (Duration: 0.3ms | Allocations: 77)
  Rendered layout layouts/application.html.erb (Duration: 32.8ms | Allocations: 3301)
Completed 200 OK in 35ms (Views: 34.4ms | ActiveRecord: 0.0ms | Allocations: 3734)
  [1m[36mTRANSACTION (0.1ms)[0m  [1m[31mrollback transaction[0m
[Webpacker] Everything's up-to-date. Nothing to do
[Webpacker] Everything's up-to-date. Nothing to do
  Rendered layouts/_shim.html.erb (Duration: 0.1ms | Allocations: 24)
  Rendered layouts/_header.html.erb (Duration: 0.3ms | Allocations: 70)
  Rendered layouts/_footer.html.erb (Duration: 0.2ms | Allocations: 55)
  Rendered layouts/_header.html.erb (Duration: 0.2ms | Allocations: 70)
  Rendered layout layouts/application.html.erb (Duration: 39.5ms | Allocations: 4291)
Completed 200 OK in 42ms (Views: 41.7ms | ActiveRecord: 0.0ms | Allocations: 4686)
  [1m[36mTRANSACTION (0.1ms)[0m  [1m[31mrollback transaction[0m
  Rendered layouts/_shim.html.erb (Duration: 0.5ms | Allocations: 22)
  Rendered layouts/_header.html.erb (Duration: 0.4ms | Allocations: 95)
  Rendered layouts/_footer.html.erb (Duration: 0.2ms | Allocations: 53)
  Rendered layouts/_header.html.erb (Duration: 0.2ms | Allocations: 63)
  Rendered layout layouts/application.html.erb (Duration: 52.2ms | Allocations: 6774)
Completed 200 OK in 75ms (Views: 69.9ms | ActiveRecord: 0.0ms | Allocations: 10173)
  [1m[36mTRANSACTION (0.1ms)[0m  [1m[31mrollback transaction[0m
